[
    {
        "scope": "https://www.kauzig.ch:443",
        "method": "GET",
        "path": "/",
        "body": "",
        "status": 200,
        "response": "<!DOCTYPE html>\n<html lang=\"en\">\n<!DOCTYPE html>\n<html lang=\"en\">\n<head>\n  \n\t<title>KAUZ - home</title>\n\t<meta charset=\"utf-8\" />\n\t<meta name=\"description\" content=\"Kauz, Ausstellungsstrasse 21, 8005 Z&uuml;rich\" />\n\t<meta name=\"keywords\" content=\"Club, Music, Launch, Bar\" />\n\t<meta name=\"robots\" content=\"index, follow\" />\n\t<meta name=\"viewport\" content=\"width=device-width\">\n\t\n\t<link rel=\"icon\" type=\"image/png\" href=\"kauz-icon.png\">\n\t\n\t<link rel=\"stylesheet\" href=\"assets/styles/normalize.css\">\n\t<link rel=\"stylesheet\" href=\"assets/styles/main.css\">  \n\t\n</head>\n<body>\n\n\n\t<div id=\"container\" >\n\t  <div id=\"logo\" class=\"item\">\n\t  \t<img src=\"assets/images/kauz.gif\" alt=\"Kauz Logo\" />\n\t  </div>\n\n\t\t<div id=\"home\" class=\"item\"><div><hr />\n\n<hr />\n\n<h1>SEPTEMBER</h1>\n\n<h1>2019</h1>\n\n<hr />\n\n<hr />\n\n<hr />\n\n<hr />\n\n<hr />\n\n<p><small>Samstag 31</small></p>\n\n<h2>OPENING</h2>\n\n<p>— <br />\nMADMOTORMIQUEL<br />\n<small><small> Katermukke, Feines Tier - Berlin</small></small><br />\nDIE GALOPPIERENDE ZUVERSICHT <small><small>LIVE</small></small><br />\nZWILLINGSMANN</p>\n\n<blockquote>\n  <p>...</p>\n</blockquote>\n\n<hr />\n\n<p><small>Freitag 06</small></p>\n\n<h2>EXTENDED</h2>\n\n<p>— <br />\nMILEY SERIOUS <br />\n<small><small>Rinse Crance, 99cts Records</small></small><br />\nTEBE <br />\nNICOLA KAZIMIR</p>\n\n<blockquote>\n  <p>... </p>\n</blockquote>\n\n<hr />\n\n<p><small>Samstag 07</small></p>\n\n<h2>NO FRILLS</h2>\n\n<p>— <br />\nNO FRILLS<br />\n<small><small> 5918mins. – Berlin</small></small><br />\nSENTIMENT<br />\nCOCO FRESCO<br />\nPIAGGIO CIAO BOYS</p>\n\n<blockquote>\n  <p>...</p>\n</blockquote>\n\n<hr />\n\n<p><small>Freitag 13</small></p>\n\n<h2>EXPLICIT - SECOND</h2>\n\n<p>— <br />\nfr. JPLA <small><small>hot club</small></small><br />\nneurobic <small><small>hot club</small></small></p>\n\n<blockquote>\n  <p>... </p>\n</blockquote>\n\n<hr />\n\n<p><small>Samstag 14</small></p>\n\n<h2>HEIMLICH KNÜLLER</h2>\n\n<p>— <br />\nHEIMLICH KNÜLLER <br />\n<small><small>Feines Tier, Garbicz – Berlin</small></small><br />\nNINI PANINI <br />\nYUUL &amp; DIGÉSTIF </p>\n\n<blockquote>\n  <p>...</p>\n</blockquote>\n\n<hr />\n\n<p><small>Sonntag 15</small></p>\n\n<h2>COLLAGE</h2>\n\n<p>— <br />\nSVEN DOHSE <br />\n<small><small>Kater Blau – Berlin</small></small><br />\nSAMSARA <br />\nWILL SELBER </p>\n\n<blockquote>\n  <p>... </p>\n</blockquote>\n\n<hr />\n\n<p><small>Freitag 20</small></p>\n\n<h2>LOKD</h2>\n\n<p>— <br />\nO/Y - LIVE <br />\n<small><small>Kopfüber, Underyourskin – Berlin</small></small><br />\nARUTANI <br />\n<small><small>Laut &amp; Luise, Circles &amp; Stones, Basel</small></small> <br />\nĂVEM<br />\n<small><small>LOKD</small></small> <br />\nPAWLILOWSKI<br />\n<small><small>LOKD</small></small></p>\n\n<blockquote>\n  <p>...</p>\n</blockquote>\n\n<hr />\n\n<p><small>Samstag 21</small></p>\n\n<h2>KATER BLAU SHOWCASE</h2>\n\n<p>— <br />\nFRANCA<br />\n<small><small>Feines Tier - Amsterdam</small></small><br />\nPETER SCHUMANN<br />\n<small><small>Kater Blau - Berlin</small></small><br />\nSAMPAYO</p>\n\n<blockquote>\n  <p>... </p>\n</blockquote>\n\n<hr />\n\n<p><small>Freitag 27</small></p>\n\n<h2>I FEEL YOU</h2>\n\n<p>— <br />\nPERFORMANCE BY EVALYN EATDITH<br />\nPLAYLOVE<br />\nAJELE<br />\nELI VERVEINE<br />\nPABLO COLOR</p>\n\n<blockquote>\n  <p>...</p>\n</blockquote>\n\n<hr />\n\n<p><small>Samstag 28</small></p>\n\n<h2>ALI25A</h2>\n\n<p>— <br />\nPolytoxikomanie <small><small>Sisycrew – Berlin</small></small><br />\nILSE &amp; BAERG <br />\nAARON KHALEIAN<br />\nOILST &amp; BEN JARLI</p>\n\n<blockquote>\n  <p>... </p>\n</blockquote>\n\n<hr />\n\n<hr />\n\n<hr />\n\n<hr />\n\n<hr />\n\n<hr />\n\n<hr />\n\n<hr />\n\n<hr />\n\n<hr />\n\n<hr />\n\n<hr />\n\n<hr />\n\n<h1>Kauz</h1>\n\n<p><small>Ausstellungsstr. 21</small><br />\n<small>8005 Zürich</small><br />\n<small>Ab 21:00 - Eintritt frei bis 23:00</small></p>\n</div><div class=\"footer\">\n</div></div><div class=\"item\"><img src=\"content/home/2019_Kauz_September.gif\" alt=\"\" /></div><div id=\"contact\" class=\"item lalalala\"><a href=\"mailto:uhu@kauzig.ch\"><img src=\"content/home/contact/contact.jpeg\" alt=\"contact\"/></a></div><div class=\"item\"><img src=\"content/home/eisbaer.jpg\" alt=\"\" /></div><div id=\"newsletter\" class=\"item\"><img src=\"content/home/newsletter/kauz-newsletter.gif\" alt=\"\" /><div id=\"newsletterHidden\"><!-- Begin MailChimp Signup Form -->\n<div id=\"mc_embed_signup\">\n<form action=\"http://kauzig.us8.list-manage.com/subscribe/post-json?u=e2e7d3c1f949d07a72ca403db&amp;id=9c7c3f0472&c=?\" method=\"get\" id=\"mc-embedded-subscribe-form\" name=\"mc-embedded-subscribe-form\" class=\"validate\" target=\"_blank\" novalidate>\n\t<!--<h2>Den Kauz Newsletter abonnieren</h2>-->\n<div class=\"mc-field-group\">\n\t<label for=\"mce-EMAIL\">Email<span class=\"asterisk\">*</span>\n</label>\n\t<input type=\"email\" value=\"\" name=\"EMAIL\" class=\"required email\" id=\"mce-EMAIL\" placeholder=\"Email\">\n</div>\n<div class=\"mc-field-group\">\n\t<label for=\"mce-FNAME\">Vorname <span class=\"asterisk\">*</span>\n</label>\n\t<input type=\"text\" value=\"\" name=\"FNAME\" class=\"required\" id=\"mce-FNAME\" placeholder=\"Vorname\">\n</div>\n<div class=\"mc-field-group\">\n\t<label for=\"mce-LNAME\">Nachname <span class=\"asterisk\">*</span>\n</label>\n\t<input type=\"text\" value=\"\" name=\"LNAME\" class=\"required\" id=\"mce-LNAME\" placeholder=\"Nachname\">\n</div>\n<div class=\"mc-field-group\">\n\t<label for=\"mce-MMERGE3\">Addresse </label>\n\t<input type=\"text\" value=\"\" name=\"MMERGE3\" class=\"\" id=\"mce-MMERGE3\" placeholder=\"Addresse (optional)\">\n</div>\n<div class=\"mc-field-group\">\n\t<label for=\"mce-MMERGE4\">PLZ </label>\n\t<input type=\"text\" value=\"\" name=\"MMERGE4\" class=\"\" id=\"mce-MMERGE4\" placeholder=\"PLZ (optional)\">\n</div>\n<div class=\"mc-field-group\">\n\t<label for=\"mce-MMERGE5\">Stadt </label>\n\t<input type=\"text\" value=\"\" name=\"MMERGE5\" class=\"\" id=\"mce-MMERGE5\" placeholder=\"Stadt (optional)\">\n</div>\n\t<div id=\"mce-responses\" class=\"clear\">\n\t\t<div class=\"response\" id=\"mce-error-response\" style=\"display:none\"></div>\n\t\t<div class=\"response\" id=\"mce-success-response\" style=\"display:none\"></div>\n\t</div>    <!-- real people should not fill this in and expect good things - do not remove this or risk form bot signups-->\n    <div style=\"position: absolute; left: -5000px;\"><input type=\"text\" name=\"b_e2e7d3c1f949d07a72ca403db_9c7c3f0472\" value=\"\"></div>\n\t<div class=\"clear\"><input type=\"submit\" value=\"abschicken\" name=\"subscribe\" id=\"mc-embedded-subscribe\" class=\"button\"></div>\n</form>\n</div>\n\n<!--End mc_embed_signup--></div></div><div id=\"bar\" class=\"item\"><div class=\"flipper\"><div class=\"front\"><img src=\"content/home/bar/drink_of_the_month_classy.jpg\" alt=\"\" /></div><div class=\"back\"><h2>SCHREBERGARTEN</h2>\n\n<p>Rhabarber, Wodka, Zitrone</p>\n\n<h2>BREAKFAST FOR CHAMPIONS</h2>\n\n<p>Rum, Kaffee, Kina, Zitrone, Cointreau</p>\n\n<h2>AVIATION</h2>\n\n<p>Tanqueray 10, Maraschino, Creme de Violettes, Zitrone</p>\n\n<h2>M-L-B</h2>\n\n<p>Mezcal, Superlime, Agostura</p>\n\n<h2>PALERMO</h2>\n\n<p>Highwest Rye Whiskey, Averna, Angostura</p>\n\n<h2>PING PONG TONIC</h2>\n\n<p>Sloe Gin, Trockener Wermut, Roter Wermut, Tonic</p>\n\n<p>☻</p>\n\n<p><p></p>\n</div></div></div><div class=\"item\"><img src=\"content/home/n_hamburg.jpg\" alt=\"\" /></div><div id=\"lostAndFound\" class=\"item\"><img src=\"content/home/lostAndFound//lostAndFound.gif\" alt=\"lost and found\"/><div id=\"lostandfoundHidden\"><form action=\"sendmail.php\" method=\"post\" id=\"lostandfoundform\" class=\"form-inline\">\n    <div class=\"input-area\">\n    \t<input type=\"email\" value=\"\" name=\"Email\" class=\"required email\" id=\"EMAIL\" placeholder=\"Email\">\n    \t<input type=\"text\" value=\"\" name=\"Vorname\" class=\"required\" id=\"FNAME\" placeholder=\"Vorname\">\n    \t<input type=\"text\" value=\"\" name=\"Nachname\" class=\"required\" id=\"LNAME\" placeholder=\"Nachname\">\n    \t<input type=\"text\" value=\"\" name=\"Adresse\" class=\"\" id=\"MMERGE3\" placeholder=\"Adresse\">\n    \t<input type=\"text\" value=\"\" name=\"PLZ\" class=\"\" id=\"MMERGE4\" placeholder=\"PLZ\">\n    \t<input type=\"text\" value=\"\" name=\"Stadt\" class=\"\" id=\"MMERGE5\" placeholder=\"Stadt\">\n    \t<input type=\"text\" value=\"\" name=\"Telefon\" class=\"\" id=\"MMERGE6\" placeholder=\"Telefon\">\n    \t<input type=\"text\" value=\"\" name=\"Datum_des_Verlustes\" class=\"\" id=\"MMERGE7\" placeholder=\"Datum des Verlustes\">\n    \t<input type=\"text\" value=\"\" name=\"Uhrzeit_des_Verlustes\" class=\"\" id=\"MMERGE8\" placeholder=\"Uhrzeit des Verlustes\">\n    \t<input type=\"text\" value=\"\" name=\"Ticketnummer\" class=\"\" id=\"MMERGE9\" placeholder=\"Ticket (falls vorhanden)\">\n        <input type=\"text\" value=\"\" name=\"Name_des_Events\" class=\"\" id=\"MMERGE10\" placeholder=\"Name des Events\">\n        <input type=\"text\" value=\"\" name=\"Genauer_Ort_des_Verlustes\" class=\"\" id=\"MMERGE11\" placeholder=\"Genauer Ort des Verlustes\">\n        <textarea rows=\"6\" name=\"Beschreibung_des_Gegenstandes\" form=\"lostandfoundform\" class=\"required\" placeholder=\"Beschreibung des Gegenstandes\"></textarea>\n        <textarea rows=\"6\" name=\"Bemerkungen\" form=\"lostandfoundform\" placeholder=\"Bemerkungen\"></textarea>\n    </div>\n\t<div id=\"responses\" class=\"clear\">\n\t\t<div class=\"response\" id=\"error-response\" style=\"display:none\"></div>\n\t\t<div class=\"response\" id=\"success-response\" style=\"display:none\"></div>\n\t</div>\n\n    <input type=\"submit\" value=\"abschicken\" name=\"subscribe\" id=\"embedded-subscribe\" class=\"button lostandfound-submit\">\n</form>\n</div></div><div class=\"item\"><img src=\"content/home/ra_cocktail_neu.jpg\" animation=\"content/home/animations/ra_cocktail_neu.gif\" still=\"content/home/ra_cocktail_neu.jpg\" alt=\"\" /></div><div id=\"radio\" class=\"item\"><a href=\"https://soundcloud.com/kauzmusik\" target=\"_blank\"><img src=\"content/home/radio/music.gif\" alt=\"music\" /></a></div><div class=\"item\"><img src=\"content/home/t_retro_shuttle.jpg\" animation=\"content/home/animations/t_retro_shuttle.gif\" still=\"content/home/t_retro_shuttle.jpg\" alt=\"\" /></div><div class=\"item\"><img src=\"content/home/tv_snow.jpg\" animation=\"content/home/animations/tv_snow.gif\" still=\"content/home/tv_snow.jpg\" alt=\"\" /></div><div class=\"item\"><img src=\"content/home/u_civetta_web_2.jpg\" alt=\"\" /></div><div class=\"item\"><img src=\"content/home/u_hamburg.jpg\" alt=\"\" /></div><div class=\"item\"><img src=\"content/home/u_spiralwave.jpg\" animation=\"content/home/animations/u_spiralwave.gif\" still=\"content/home/u_spiralwave.jpg\" alt=\"\" /></div><div class=\"item\"><img src=\"content/home/v_PIC_NOVEMBER_2.jpg\" alt=\"\" /></div><div class=\"item\"><img src=\"content/home/y_doro_streetparade_square.jpg\" animation=\"content/home/animations/y_doro_streetparade_square.gif\" still=\"content/home/y_doro_streetparade_square.jpg\" alt=\"\" /></div><div class=\"item\"><img src=\"content/home/ywassermelonenschrebi.jpg\" alt=\"\" /></div><div class=\"item\"><img src=\"content/home/z_02.gif\" alt=\"\" /></div><div class=\"item\"><img src=\"content/home/z_cloud_bw.jpg\" animation=\"content/home/animations/z_cloud_bw.gif\" still=\"content/home/z_cloud_bw.jpg\" alt=\"\" /></div><div class=\"item\"><img src=\"content/home/zz_aftermess_invert.jpg\" animation=\"content/home/animations/zz_aftermess_invert.gif\" still=\"content/home/zz_aftermess_invert.jpg\" alt=\"\" /></div><div class=\"item\"><img src=\"content/home/zz_smokeweb.gif\" alt=\"\" /></div><div class=\"item\"><img src=\"content/home/zzz_Bouncing_droplets_compact_size.jpg\" animation=\"content/home/animations/zzz_Bouncing_droplets_compact_size.gif\" still=\"content/home/zzz_Bouncing_droplets_compact_size.jpg\" alt=\"\" /></div><div class=\"item\"><img src=\"content/home/zzz_FUENF_WEB.jpg\" alt=\"\" /></div><div class=\"item\"><img src=\"content/home/zzzz_CARLA_ROUGE.jpg\" animation=\"content/home/animations/zzzz_CARLA_ROUGE.gif\" still=\"content/home/zzzz_CARLA_ROUGE.jpg\" alt=\"\" /></div>\n\n\t</div>\n\t<script src=\"assets/js/jquery-1.11.0.min.js\"></script>\n\t<script src=\"assets/js/masonry.pkgd.min.js\"></script>\n\t<script src=\"assets/js/imagesloaded.pkgd.min.js\"></script>\n\t<script src=\"assets/audiojs/audio.min.js\"></script>\n\t<script src=\"assets/js/main.js\"></script>\n</body>\n</html>\n",
        "rawHeaders": [
            "server",
            "nginx",
            "date",
            "fri, 16 aug 2019 17:00:28 gmt",
            "content-type",
            "text/html; charset=utf-8",
            "connection",
            "close",
            "vary",
            "accept-encoding",
            "x-powered-by",
            "plesklin"
        ]
    }
]
