[
    {
        "scope": "https://wimmusic.ch:443",
        "method": "GET",
        "path": "/programm/",
        "body": "",
        "status": 200,
        "response": "<!DOCTYPE html\n    PUBLIC \"-//W3C//DTD XHTML 1.0 Transitional//EN\"\n    \"http://www.w3.org/TR/xhtml1/DTD/xhtml1-transitional.dtd\">\n<html xml:lang=\"de\" lang=\"de\" xmlns=\"http://www.w3.org/1999/xhtml\">\n<head>\n\n<meta http-equiv=\"Content-Type\" content=\"text/html; charset=utf-8\" />\n<!-- \n\t(c) romeier web solutions 2016 - www.romeier.ch\n\n\tThis website is powered by TYPO3 - inspiring people to share!\n\tTYPO3 is a free open source Content Management Framework initially created by Kasper Skaarhoj and licensed under GNU/GPL.\n\tTYPO3 is copyright 1998-2017 of Kasper Skaarhoj. Extensions are copyright of their respective owners.\n\tInformation and contribution at http://typo3.org/\n-->\n\n<base href=\"https://wimmusic.ch/\" />\n<link rel=\"shortcut icon\" href=\"/fileadmin/_img/iconified/favicon.ico\" type=\"image/x-icon; charset=binary\" />\n<link rel=\"icon\" href=\"/fileadmin/_img/iconified/favicon.ico\" type=\"image/x-icon; charset=binary\" />\n<title>Programm: WIM Werkstatt für improvisierte Musik Zürich</title>\n<meta name=\"generator\" content=\"TYPO3 CMS\" />\n<meta name=\"author\" content=\"Roland Meier - romeier web solutions, www.romeier.ch, kontakt(at)romeier.ch\" />\n<meta name=\"robots\" content=\"INDEX,FOLLOW\" />\n<meta name=\"KEYWORDS\" content=\"wim, werkstatt für improvisierte musik, zürich, impro, musik\" />\n<meta name=\"DESCRIPTION\" content=\"Homepage der Werkstatt für improvisierte Musik Zürich\" />\n<meta name=\"ABSTRACT\" content=\"Homepage der Werkstatt für improvisierte Musik Zürich\" />\n\n\n<link rel=\"stylesheet\" type=\"text/css\" href=\"typo3temp/stylesheet_fb6d0cbb79.css?1456521713\" media=\"all\" />\n<link rel=\"stylesheet\" type=\"text/css\" href=\"fileadmin/_lib/theme/css/bootstrap.min.css?1456519791\" media=\"all\" />\n<link rel=\"stylesheet\" type=\"text/css\" href=\"fileadmin/_lib/theme/css/font-awesome.min.css?1456519790\" media=\"all\" />\n<link rel=\"stylesheet\" type=\"text/css\" href=\"fileadmin/_lib/theme/css/flexslider.css?1456519790\" media=\"all\" />\n<link rel=\"stylesheet\" type=\"text/css\" href=\"fileadmin/_lib/theme/css/prettyPhoto.css?1456519791\" media=\"all\" />\n<link rel=\"stylesheet\" type=\"text/css\" href=\"fileadmin/_lib/jsSocial/jssocials.css?1457131783\" media=\"all\" />\n<link rel=\"stylesheet\" type=\"text/css\" href=\"fileadmin/_lib/jsSocial/jssocials-theme-flat.css?1457131782\" media=\"all\" />\n<link rel=\"stylesheet\" type=\"text/css\" href=\"fileadmin/_css/red_wim.css?1457011083\" media=\"all\" />\n<link rel=\"stylesheet\" type=\"text/css\" href=\"fileadmin/_css/style.css?1463166406\" media=\"all\" />\n\n\n<script src=\"uploads/tx_t3jquery/jquery-1.9.x-1.9.x.js?1456862903\" type=\"text/javascript\"></script>\n<script src=\"fileadmin/_lib/theme/js/bootstrap.min.js?1456519803\" type=\"text/javascript\"></script>\n<script src=\"fileadmin/_lib/theme/js/modernizr.custom.28468.js?1456519804\" type=\"text/javascript\"></script>\n<script src=\"fileadmin/_lib/theme/js/respond.min.js?1456519804\" type=\"text/javascript\"></script>\n<script src=\"fileadmin/_lib/theme/js/html5shiv.js?1456519803\" type=\"text/javascript\"></script>\n<script src=\"fileadmin/_lib/theme/js/jquery.flexslider-min.js?1456519803\" type=\"text/javascript\"></script>\n<script src=\"fileadmin/_lib/theme/js/jquery.prettyPhoto.js?1456519804\" type=\"text/javascript\"></script>\n<script src=\"fileadmin/_lib/jsSocial/jssocials.min.js?1457131783\" type=\"text/javascript\"></script>\n<script src=\"fileadmin/_js/scripts.js?1456863431\" type=\"text/javascript\"></script>\n<script src=\"typo3temp/javascript_dd82474708.js?1456519862\" type=\"text/javascript\"></script>\n\n\n<meta name=\"viewport\" content=\"width=device-width, initial-scale=1, maximum-scale=1\" />\r\n<meta name=\"apple-mobile-web-app-capable\" content=\"no\" />\r\n<link rel=\"apple-touch-icon\" href=\"fileadmin/_img/iconified/apple-touch-icon.png\" />\r\n<link rel=\"apple-touch-icon\" sizes=\"57x57\" href=\"fileadmin/_img/iconified/apple-touch-icon-57x57.png\" />\r\n<link rel=\"apple-touch-icon\" sizes=\"72x72\" href=\"fileadmin/_img/iconified/apple-touch-icon-72x72.png\" />\r\n<link rel=\"apple-touch-icon\" sizes=\"76x76\" href=\"fileadmin/_img/iconified/apple-touch-icon-76x76.png\" />\r\n<link rel=\"apple-touch-icon\" sizes=\"114x114\" href=\"fileadmin/_img/iconified/apple-touch-icon-114x114.png\" />\r\n<link rel=\"apple-touch-icon\" sizes=\"120x120\" href=\"fileadmin/_img/iconified/apple-touch-icon-120x120.png\" />\r\n<link rel=\"apple-touch-icon\" sizes=\"144x144\" href=\"fileadmin/_img/iconified/apple-touch-icon-144x144.png\" />\r\n<link rel=\"apple-touch-icon\" sizes=\"152x152\" href=\"fileadmin/_img/iconified/apple-touch-icon-152x152.png\" />\n</head>\n<body>\n\n<!-- Header Starts -->\n\t\t<header>\n\t\t\t<div class=\"container\">\n\t\t\t\t<div class=\"row\">\n\t\t\t\t\t<div class=\"col-md-12 col-sm-12\">\n                        <div class=\"logo pull-left\">\n                        <a href=\"/\" title=\"zur Startseite WIM\"><img src=\"fileadmin/_img/logo.png\" alt=\"Logo WIM\"/></a>\n                        </div>\n                        <div class=\"headline pull-left visible-lg visible-md visible-sm\">\n                                <h1><a href=\"/\">Werkstatt für improvisierte Musik Zürich</a></h1>\r\n                        </div>\n\t\t\t\t\t</div>\n\t\t\t\t\t<!--<div class=\"col-md-8 col-sm-8\">\n                        <div class=\"headline\">\n                          <h1><a href=\"/\">Werkstatt für improvisierte Musik Zürich</a></h1>\n                          <div class=\"hmeta\"><span class=\"color\">Laboratorium für experimentelle Klänge</span></div>\n                        </div>\n\t\t\t\t\t</div>-->\n\t\t\t\t\t<!--<div class=\"col-md-5 col-md-offset-3 col-sm-6 col-sm-offset-2\">\n\t\t\t\t\t\n\t\t\t\t\t\t<form class=\"form-inline\" role=\"form\">\n\t\t\t\t\t\t  <div class=\"form-group\">\n\t\t\t\t\t\t\t<input type=\"text\" class=\"form-control\" id=\"search\" placeholder=\"Suchen nach...\">\n\t\t\t\t\t\t  </div>\n\t\t\t\t\t\t  <button type=\"submit\" class=\"btn btn-default\">Suchen</button>\n\t\t\t\t\t\t</form>\n\t\t\t\t\t\n\t\t\t\t\t</div>-->\n\t\t\t\t</div>\n\t\t\t</div>\n\t\t</header>\n\n\t\t\t<!-- Navigation bar starts -->\n\n            <div class=\"navbar bs-docs-nav\" role=\"banner\">\n\t\t\t\t<div class=\"container\">\n\t\t\t\t\t<div class=\"navbar-header\">\n\t\t\t\t\t\t<button class=\"navbar-toggle\" type=\"button\" data-toggle=\"collapse\" data-target=\".bs-navbar-collapse\">\n\t\t\t\t\t\t\t<span class=\"mobileMenuLabel\">Menü</span>\n                            <div class=\"mobileMenuIconBar\">\n                                <span class=\"icon-bar\"></span>\n                                <span class=\"icon-bar\"></span>\n                                <span class=\"icon-bar\"></span>\n                            </div>\n\t\t\t\t\t\t</button>\n\t\t\t\t\t</div>\n\t\t\t\t\t<nav class=\"collapse navbar-collapse bs-navbar-collapse\" role=\"navigation\">\n                    <ul class=\"nav navbar-nav\"><li><a href=\"aktuell/\" class=\" item_4\">Aktuell</a></li><li><a href=\"was-ist-die-wim/\" class=\" item_5\">Was ist die WIM?</a></li><li class=\"current_page_item active\"><a href=\"programm/\" class=\"act active item_6\">Programm</a></li><li><a href=\"http://www.wimmusic.ch/res\" class=\" item_7\">Login</a></li><li><a href=\"archiv/\" class=\" item_8\">Archiv</a></li><li><a href=\"kontakt/\" class=\" item_9\">Kontakt</a></li></ul>\n                  </nav>\n                </div>\n            </div>\n\n\t\t\t<!--/ Navigation bar ends -->\n\n\t\t<div class=\"content\">\n\t\t\t<div class=\"container\">\n\t\t\t\t\n\t<!--  CONTENT ELEMENT, uid:52/text [begin] -->\n\t\t<div id=\"c52\" class=\"csc-default\">\n\t\t<!--  Text: [begin] -->\n\t\t\t<p class=\"bodytext\"><b>Regel für Werkstattprogramm</b> bezüglich COVID-19: Es kann von den anwesenden Personen eine Maskentragpflicht beschlossen werden. Es werden FFP2 Masken zur Verfügung gestellt. Bei Symptomen bitten wir zu Hause zu bleiben. (Details siehe Schutzkonzept unter &quot;Aktuell&quot;)\r</p>\n<p class=\"bodytext\">&nbsp;</p>\n<p class=\"bodytext\">&nbsp;</p>\n\t\t<!--  Text: [end] -->\n\t\t\t</div>\n\t<!--  CONTENT ELEMENT, uid:52/text [end] -->\n\t\t\n\t<!--  CONTENT ELEMENT, uid:9/list [begin] -->\n\t\t<div id=\"c9\" class=\"csc-default\">\n\t\t<!--  Plugin inserted: [begin] -->\n\t\t\t\n<div class=\"tx-roevents\">\n\t\n\n\n\n\n\n\n\n<div class=\"tx-roevents-list\">\n    \n        <div class=\"row\"> \n          <div class=\"col-sm-2\">\n            <strong>Fr, 25. November</strong> <span class=\"hidden-xs\"><br /></span>\n            20:15\n          </div>\n          <div class=\"col-sm-10\">\n            <a href=\"programm/konzert-details/29aa57fa63dd126c6ff5f66eb383e15f/?tx_roevents_showevents%5Bevent_id%5D=1609&amp;tx_roevents_showevents%5BpidBack%5D=6&amp;tx_roevents_showevents%5Baction%5D=list&amp;tx_roevents_showevents%5Bcontroller%5D=Events\"> <strong>Werkstattprogramm 1. Set</strong><br /></a>\n            <ul>\n                \n                    <li>Marc Berman \n                    \n                    \t&ndash; Accordion, Effekte</li>\n                    \n                \n                    <li>Jamasp Jhabvala \n                    \n                    \t&ndash; Geige, Effekte</li>\n                    \n                \n            </ul>\n          </div>\n        </div>\n    \n        <div class=\"row\"> \n          <div class=\"col-sm-2\">\n            <strong></strong> <span class=\"hidden-xs\"><br /></span>\n            21:00\n          </div>\n          <div class=\"col-sm-10\">\n            <a href=\"programm/konzert-details/9804d16d4827ed3715aae1e6416a50b7/?tx_roevents_showevents%5Bevent_id%5D=1622&amp;tx_roevents_showevents%5BpidBack%5D=6&amp;tx_roevents_showevents%5Baction%5D=list&amp;tx_roevents_showevents%5Bcontroller%5D=Events\"> <strong>Werkstattprogramm 2. Set</strong><br /></a>\n            <ul>\n                \n                    <li>Jamira Estrada \n                    \n                    \t&ndash; Elektronik</li>\n                    \n                \n                    <li>Paul Grimshaw \n                    \n                    \t&ndash;  Elektronik</li>\n                    \n                \n            </ul>\n          </div>\n        </div>\n    \n        <div class=\"row\"> \n          <div class=\"col-sm-2\">\n            <strong>Sa, 26. November</strong> <span class=\"hidden-xs\"><br /></span>\n            19:00\n          </div>\n          <div class=\"col-sm-10\">\n            <a href=\"programm/konzert-details/e0f532d0a6587705fac70c1b1daf083c/?tx_roevents_showevents%5Bevent_id%5D=1602&amp;tx_roevents_showevents%5BpidBack%5D=6&amp;tx_roevents_showevents%5Baction%5D=list&amp;tx_roevents_showevents%5Bcontroller%5D=Events\"> <strong>Offene Bühne #28</strong><br /></a>\n            <ul>\n                \n                    <li>Diego Kohn \n                    \n                    \t&ndash; Moderation</li>\n                    \n                \n            </ul>\n          </div>\n        </div>\n    \n        <div class=\"row\"> \n          <div class=\"col-sm-2\">\n            <strong>Do, 1. Dezember</strong> <span class=\"hidden-xs\"><br /></span>\n            20:15\n          </div>\n          <div class=\"col-sm-10\">\n            <a href=\"programm/konzert-details/5ad45056c40b2fe7f830df4b86c88b4a/?tx_roevents_showevents%5Bevent_id%5D=1617&amp;tx_roevents_showevents%5BpidBack%5D=6&amp;tx_roevents_showevents%5Baction%5D=list&amp;tx_roevents_showevents%5Bcontroller%5D=Events\"> <strong>Billiger Bauer - A! SI! NO!</strong><br /></a>\n            <ul>\n                \n            </ul>\n          </div>\n        </div>\n    \n        <div class=\"row\"> \n          <div class=\"col-sm-2\">\n            <strong>Fr, 2. Dezember</strong> <span class=\"hidden-xs\"><br /></span>\n            20:15\n          </div>\n          <div class=\"col-sm-10\">\n            <a href=\"programm/konzert-details/f3753872a0875cfacb5840523fa6a5b2/?tx_roevents_showevents%5Bevent_id%5D=1621&amp;tx_roevents_showevents%5BpidBack%5D=6&amp;tx_roevents_showevents%5Baction%5D=list&amp;tx_roevents_showevents%5Bcontroller%5D=Events\"> <strong>Programmwerkstatt</strong><br /></a>\n            <ul>\n                \n            </ul>\n          </div>\n        </div>\n    \n        <div class=\"row\"> \n          <div class=\"col-sm-2\">\n            <strong>Mi, 7. Dezember</strong> <span class=\"hidden-xs\"><br /></span>\n            20:15\n          </div>\n          <div class=\"col-sm-10\">\n            <a href=\"programm/konzert-details/23c8a4aa2e84653da0ad55bafc0d0b4e/?tx_roevents_showevents%5Bevent_id%5D=1625&amp;tx_roevents_showevents%5BpidBack%5D=6&amp;tx_roevents_showevents%5Baction%5D=list&amp;tx_roevents_showevents%5Bcontroller%5D=Events\"> <strong>Ensemble 5 Wednesday 4+1 Concert Series</strong><br /></a>\n            <ul>\n                \n            </ul>\n          </div>\n        </div>\n    \n        <div class=\"row\"> \n          <div class=\"col-sm-2\">\n            <strong>Fr, 9. Dezember</strong> <span class=\"hidden-xs\"><br /></span>\n            20:15\n          </div>\n          <div class=\"col-sm-10\">\n            <a href=\"programm/konzert-details/da15809ad036bd4538751c72d6c71bf2/?tx_roevents_showevents%5Bevent_id%5D=1618&amp;tx_roevents_showevents%5BpidBack%5D=6&amp;tx_roevents_showevents%5Baction%5D=list&amp;tx_roevents_showevents%5Bcontroller%5D=Events\"> <strong>Werkstattprogramm 1. Set</strong><br /></a>\n            <ul>\n                \n                    <li>Alex Riva \n                    \n                    \t&ndash; Blockflöten</li>\n                    \n                \n                    <li>Bindhumalini Narayanaswamy \n                    \n                    \t&ndash; Stimme, Banjo</li>\n                    \n                \n            </ul>\n          </div>\n        </div>\n    \n        <div class=\"row\"> \n          <div class=\"col-sm-2\">\n            <strong></strong> <span class=\"hidden-xs\"><br /></span>\n            21:00\n          </div>\n          <div class=\"col-sm-10\">\n            <a href=\"programm/konzert-details/9dd3366f3b5047f56905a35aae791d39/?tx_roevents_showevents%5Bevent_id%5D=1619&amp;tx_roevents_showevents%5BpidBack%5D=6&amp;tx_roevents_showevents%5Baction%5D=list&amp;tx_roevents_showevents%5Bcontroller%5D=Events\"> <strong>Werkstattprogramm 2. Set</strong><br /></a>\n            <ul>\n                \n                    <li>Jürg Gasser \n                    \n                    \t&ndash; Tenorsaxofon</li>\n                    \n                \n                    <li>Jan Schlegel \n                    \n                    \t&ndash; E-Bass</li>\n                    \n                \n                    <li>Jacques Widmer \n                    \n                    \t&ndash; Schlagzeug</li>\n                    \n                \n            </ul>\n          </div>\n        </div>\n    \n        <div class=\"row\"> \n          <div class=\"col-sm-2\">\n            <strong>Fr, 16. Dezember</strong> <span class=\"hidden-xs\"><br /></span>\n            20:15\n          </div>\n          <div class=\"col-sm-10\">\n            <a href=\"programm/konzert-details/00ec1031a87f21f84820dba0ed4f3e8e/?tx_roevents_showevents%5Bevent_id%5D=1620&amp;tx_roevents_showevents%5BpidBack%5D=6&amp;tx_roevents_showevents%5Baction%5D=list&amp;tx_roevents_showevents%5Bcontroller%5D=Events\"> <strong>Werkstattprogramm 1. Set</strong><br /></a>\n            <ul>\n                \n                    <li>Romane Bouffioux \n                    \n                    \t&ndash; Schlagzeug</li>\n                    \n                \n                    <li>Violeta Garcia \n                    \n                    \t&ndash; Cello </li>\n                    \n                \n            </ul>\n          </div>\n        </div>\n    \n        <div class=\"row\"> \n          <div class=\"col-sm-2\">\n            <strong></strong> <span class=\"hidden-xs\"><br /></span>\n            21:00\n          </div>\n          <div class=\"col-sm-10\">\n            <a href=\"programm/konzert-details/c012a1bbc17678d2d63bc8d0616b80ca/?tx_roevents_showevents%5Bevent_id%5D=1623&amp;tx_roevents_showevents%5BpidBack%5D=6&amp;tx_roevents_showevents%5Baction%5D=list&amp;tx_roevents_showevents%5Bcontroller%5D=Events\"> <strong>Werkstattprogramm 2. Set</strong><br /></a>\n            <ul>\n                \n                    <li>Corentin Barro \n                    \n                    \t&ndash; Drums/Synthesizer</li>\n                    \n                \n                    <li>Bernat Pont \n                    \n                    \t&ndash; Piano/Synthesizer</li>\n                    \n                \n                    <li>Mireia Pellisa \n                    \n                    \t&ndash; Saxofon</li>\n                    \n                \n            </ul>\n          </div>\n        </div>\n    \n        <div class=\"row\"> \n          <div class=\"col-sm-2\">\n            <strong>Sa, 17. Dezember</strong> <span class=\"hidden-xs\"><br /></span>\n            19:00\n          </div>\n          <div class=\"col-sm-10\">\n            <a href=\"programm/konzert-details/48f2368a6c8f5fd2b9ecffc4fa9e2356/?tx_roevents_showevents%5Bevent_id%5D=1603&amp;tx_roevents_showevents%5BpidBack%5D=6&amp;tx_roevents_showevents%5Baction%5D=list&amp;tx_roevents_showevents%5Bcontroller%5D=Events\"> <strong>Offene Bühne #29</strong><br /></a>\n            <ul>\n                \n                    <li>Diego Kohn \n                    \n                    \t&ndash; Moderation</li>\n                    \n                \n            </ul>\n          </div>\n        </div>\n    \n        <div class=\"row\"> \n          <div class=\"col-sm-2\">\n            <strong>Fr, 23. Dezember</strong> <span class=\"hidden-xs\"><br /></span>\n            20:15\n          </div>\n          <div class=\"col-sm-10\">\n            <a href=\"programm/konzert-details/bdc9073561cc7c978a1c9a1c8ba5fa73/?tx_roevents_showevents%5Bevent_id%5D=1615&amp;tx_roevents_showevents%5BpidBack%5D=6&amp;tx_roevents_showevents%5Baction%5D=list&amp;tx_roevents_showevents%5Bcontroller%5D=Events\"> <strong>Werkstattprogramm</strong><br /></a>\n            <ul>\n                \n                    <li>Silke Strahl \n                    \n                    \t&ndash; Saxofon</li>\n                    \n                \n                    <li>Bernd Settelmeyer \n                    \n                    \t&ndash; Schlagzeug</li>\n                    \n                \n                    <li>Vera Baumann \n                    \n                    \t&ndash; Gesang</li>\n                    \n                \n                    <li>Fried Dähn \n                    \n                    \t&ndash; Cello, electric Cello</li>\n                    \n                \n            </ul>\n          </div>\n        </div>\n    \n        <div class=\"row\"> \n          <div class=\"col-sm-2\">\n            <strong>Fr, 30. Dezember</strong> <span class=\"hidden-xs\"><br /></span>\n            20:15\n          </div>\n          <div class=\"col-sm-10\">\n            <a href=\"programm/konzert-details/3261a794e0968e41eb7472aafbdd4bd2/?tx_roevents_showevents%5Bevent_id%5D=1616&amp;tx_roevents_showevents%5BpidBack%5D=6&amp;tx_roevents_showevents%5Baction%5D=list&amp;tx_roevents_showevents%5Bcontroller%5D=Events\"> <strong>Werkstattprogramm</strong><br /></a>\n            <ul>\n                \n                    <li>Räto  Kessler \n                    \n                    \t&ndash; E-Gitarre</li>\n                    \n                \n                    <li>Jeremias Schmidli \n                    \n                    \t&ndash; Piano</li>\n                    \n                \n            </ul>\n          </div>\n        </div>\n    \n</div>\n\n\n\n\n\n\n\n\n\n\n\n\n\n\n\n</div>\n\t\t<!--  Plugin inserted: [end] -->\n\t\t\t</div>\n\t<!--  CONTENT ELEMENT, uid:9/list [end] -->\n\t\t\n\n\t\t\t</div>\n\t\t</div><!--/ Content end -->\n        \n\t\t<!-- Footer -->\n\t\t<footer>\n\t\t  <div class=\"container\">\n\t\t\t<div class=\"row\"> \n\t\t\t  <div class=\"col-md-12\">\n\n\t\t\t\t<div class=\"border\"></div>\n\t\t\t\t  <div class=\"copy\">\n                  <p style=\"float: left;\"><a href=\"#\" onclick=\"window.scrollTo(0,0); return false;\">Seitenanfang</a> - <a href=\"/\">Home</a> - <a href=\"/kontakt\">Kontakt</a> - <a href=\"/impressum\">Impressum / Datenschutz</a></p> <p style=\"float: right; text-align: right;\">&copy; WIM Zürich 2022 &#124; Website by <a href=\"http://www.romeier.ch\" target=\"_blank\">romeier web solutions</a></p>\n\t\t\t\t  </div>\n\t\t\t  </div>\n\t\t\t</div>\n\t\t  <div class=\"clearfix\"></div>\n\t\t  </div>\n\t\t</footer> \n\t\t\n  <!-- Global site tag (gtag.js) - Google Analytics -->\r\n<script async src=\"https://www.googletagmanager.com/gtag/js?id=UA-553790-24\"></script>\r\n<script>\r\n  window.dataLayer = window.dataLayer || [];\r\n  function gtag(){dataLayer.push(arguments);}\r\n  gtag('js', new Date());\r\n\r\n  gtag('config', 'UA-553790-24', { 'anonymize_ip': true });\r\n</script>\n\n\n\n\n</body>\n</html>",
        "rawHeaders": [
            "date",
            "sat, 19 nov 2022 10:36:40 gmt",
            "server",
            "apache/2.4.10 (debian)",
            "set-cookie",
            "phpsessid=vpc8v9i2nvrhj991kcq2dimts0; path=/",
            "expires",
            "thu, 19 nov 1981 08:52:00 gmt",
            "cache-control",
            "no-store, no-cache, must-revalidate, post-check=0, pre-check=0",
            "pragma",
            "no-cache",
            "vary",
            "accept-encoding",
            "content-length",
            "4136",
            "keep-alive",
            "timeout=5, max=100",
            "connection",
            "keep-alive",
            "content-type",
            "text/html; charset=utf-8"
        ]
    }
]