[
    {
        "scope": "https://www.x-tra.ch:443",
        "method": "GET",
        "path": "/de/agenda/parties/",
        "body": "",
        "status": 200,
        "response": "<!DOCTYPE HTML>\r\n<html lang=\"de\">\r\n<head>\r\n<base href=\"https://www.x-tra.ch/\">\n<meta http-equiv=\"content-type\" content=\"text/html; charset=utf-8\">\n<meta charset=\"utf-8\">\n<title>Agenda | X-TRA</title>\n<meta name=\"author\" content=\"MoveCMS by MovePeople.ch\">\n<meta name=\"format-detection\" content=\"telephone=no\">\n<link rel=\"icon\" type=\"image/x-icon\" href=\"https://www.x-tra.ch/upload/_custom/files/favicon/favicon_blue.ico\">\n<link rel=\"shortcut icon\" href=\"https://www.x-tra.ch/upload/_custom/files/favicon/favicon_blue.ico\">\n<link type=\"text/css\" href=\"https://www.x-tra.ch/cache/_87a26d61393e2cd3f314b3ae48d5d417.css\" media=\"all\" rel=\"stylesheet\">\n<style type=\"text/css\">\r\n                .row-css-1 {\r\n                    background-color: #f2f2f2;\r\n                }</style>\n<link type=\"text/css\" href=\"https://www.x-tra.ch/cache/template_css_1568648938.css\" media=\"all\" rel=\"stylesheet\"><script type=\"text/javascript\">\r\n    var ua=navigator.userAgent.toLocaleLowerCase(),\r\n        regV = /ipod|ipad|iphone/gi,\r\n        result = ua.match(regV),\r\n        userScale=\"\";\r\n    if(!result){\r\n        userScale=\", user-scalable=0\"\r\n    }\r\n    var meta = document.createElement('meta');\r\n    meta.name = \"viewport\";\r\n    meta.content = \"width=device-width, initial-scale=1.0\" + userScale;\r\n    document.getElementsByTagName('head')[0].appendChild(meta);\r\n\r\n    var viewportmeta = document.querySelector && document.querySelector('meta[name=\"viewport\"]'),\r\n    gestureStart = function () {viewportmeta.content = \"width=device-width, minimum-scale=0.25, maximum-scale=1.6\";},\r\n    scaleFix = function () {\r\n        if (viewportmeta && /iphone|ipad/.test(ua) && !/opera mini/.test(ua)) {\r\n            viewportmeta.content = \"width=device-width, minimum-scale=1.0, maximum-scale=1.0\";\r\n            document.addEventListener(\"gesturestart\", gestureStart, false);\r\n        }\r\n    };\r\n    scaleFix();\r\n</script>\r\n\r\n<script>(function(w,d,s,l,i){w[l]=w[l]||[];w[l].push({'gtm.start':\r\nnew Date().getTime(),event:'gtm.js'});var f=d.getElementsByTagName(s)[0],\r\nj=d.createElement(s),dl=l!='dataLayer'?'&l='+l:'';j.async=true;j.src=\r\n'https://www.googletagmanager.com/gtm.js?id='+i+dl;f.parentNode.insertBefore(j,f);\r\n})(window,document,'script','dataLayer','GTM-MWTB2B7');</script></head>\r\n<body class=\"theme_blue\">\r\n\r\n<noscript><iframe src=\"https://www.googletagmanager.com/ns.html?id=GTM-MWTB2B7\" \r\nheight=\"0\" width=\"0\" style=\"display:none;visibility:hidden\"></iframe></noscript><div class=\"page\">\r\n<div class=\"wrapper\">\r\n\r\n<div class=\"cookie-policy\">\r\n    <div class=\"wrapper\">  \r\n        <div class=\"left\">\r\n            <p>Um Ihnen einen optimalen Service zu bieten, verwendet diese Website Cookies. Durch die Nutzung unserer Seite erkl&auml;ren Sie sich damit einverstanden. Mehr Informationen in unserer <a href=\"/de/impressum/\">Datenschutzerkl&auml;rung auf der Seite Impressum</a>.</p>\r\n\r\n        </div><div class=\"right\">\r\n            <a class=\"cookie-policy-accept-button\" href=\"/de/agenda/parties/?cookies=accept\">OK</a>\r\n        </div>        \r\n    </div>\r\n</div>\r\n<header>\r\n    <div class=\"content\">\r\n        <div class=\"logo\">\r\n            <a class=\"logo\" href=\"https://www.x-tra.ch/de/\"><img src=\"/upload/_custom/images/design/logo_blue.png\" alt=\"X-TRA\" /></a>\r\n        </div>\r\n        <ul class=\"social\">\r\n            <li><a class=\"facebook\" target=\"_blank\" href=\"https://www.facebook.com/XTRA.Zuerich?fref=ts\"></a></li>\r\n            <li><a class=\"instagram\" target=\"_blank\" href=\"https://instagram.com/xtrazuerich\"></a></li>\r\n            <li><a class=\"linkedin\" target=\"_blank\" href=\"https://www.linkedin.com/company/x-tra-production-ag\"></a></li>            \r\n        </ul>\r\n        <a class=\"ham\" href=\"javascript:void(0)\">\r\n            <span></span>\r\n            <span></span>\r\n            <span></span>\r\n        </a>          \r\n        <nav class=\"main\">\r\n            <a class=\"x\" href=\"#\"></a>          \r\n            <ul>\r\n            <li class=\"active\"><a href=\"/de/agenda/\">Agenda</a><a class=\"submenu\" href=\"#\"></a><ul class=\"submenu\">\r\n                <li><a href=\"/de/agenda/konzerte/\">Konzerte</a></li>\r\n                <li><a href=\"/de/agenda/partys/\">Partys</a></li>\r\n                <li><a href=\"/de/agenda/anlaesse/\">Anlässe</a></li>\r\n                <li><a href=\"/de/agenda/konzert-partypictures/\">Konzert & Partyfotos</a></li>\r\n                <li><a href=\"/de/agenda/newsletter/\">Newsletter</a></li></ul>\r\n                </li>\r\n            <li><a href=\"/de/location/\">Location</a><a class=\"submenu\" href=\"#\"></a><ul class=\"submenu\">\r\n                <li><a href=\"/de/location/raumangebot/\">Raumangebot</a></li>\r\n                <li><a href=\"/de/location/anfrage/\">Anfrage</a></li>\r\n                <li><a href=\"/de/location/geschichte/\">Geschichte</a></li>\r\n                <li><a href=\"/de/location/architektur/\">Architektur</a></li>\r\n                <li><a href=\"/de/location/anfahrt/\">Anfahrt</a></li></ul>\r\n                </li>\r\n            <li><a href=\"/de/services/\">Services</a><a class=\"submenu\" href=\"#\"></a><ul class=\"submenu\">\r\n                <li><a href=\"/de/services/eventplaner/\">NEU: Eventplaner</a></li>\r\n                <li><a href=\"/de/services/eventplanung/\">Eventorganisation</a></li>\r\n                <li><a href=\"/de/services/referenzen/\">Referenzen</a></li>\r\n                <li><a href=\"/de/services/eventideen/\">Eventideen</a></li>\r\n                <li><a href=\"/de/services/hospitality-package/\">Hospitality Package</a></li>\r\n                <li><a href=\"/de/services/catering/\">Catering</a></li>\r\n                <li><a href=\"/de/services/inszenierung/\">Inszenierung</a></li>\r\n                <li><a href=\"/de/services/lounge-reservation/\">Lounge Reservation</a></li>\r\n                <li><a href=\"/de/services/downloads/\">Technik & Downloads</a></li></ul>\r\n                </li>\r\n            <li><a href=\"/de/team/\">Team</a><a class=\"submenu\" href=\"#\"></a><ul class=\"submenu\">\r\n                <li><a href=\"/de/team/?c=2\">Marketing & Sales</a></li>\r\n                <li><a href=\"/de/team/?c=3\">Produktion & Technik</a></li>\r\n                <li><a href=\"/de/team/?c=4\">Services & Finanzen</a></li>\r\n                <li><a href=\"/de/team/?c=5\">Hotel & Gastronomie</a></li>\r\n                <li><a href=\"/de/team/?c=1\">Geschäftsleitung</a></li></ul>\r\n                </li>\r\n            <li><a href=\"/de/hotel/zimmer/\">Hotel</a>\r\n                </li>\r\n                <li><a href=\"/de/kontakt/\">Kontakt</a>\r\n                <li class=\"lang\">\r\n                    <ul>\r\n                        <li class=\"active\"><a href=\"/de/agenda/\">de</a></li>\r\n                        <li><a href=\"/en/agenda/\">en</a></li>\r\n                    </ul>\r\n                </li>\r\n                <li class=\"social\">\r\n                    <ul class=\"social\">\r\n                        <li><a class=\"facebook\" target=\"_blank\" href=\"https://www.facebook.com/XTRA.Zuerich?fref=ts\"></a></li>\r\n                        <li><a class=\"instagram\" target=\"_blank\" href=\"https://instagram.com/xtrazuerich\"></a></li>\r\n                        <li><a class=\"linkedin\" target=\"_blank\" href=\"https://www.linkedin.com/company/x-tra-production-ag\"></a></li>\r\n                    </ul>\r\n                </li>\r\n                <li class=\"search\"><a class=\"search\" href=\"javascript:void(0)\"></a></li>\r\n            </ul>    \r\n        </nav>\r\n    </div>\r\n</header>\r\n<div id=\"corporate_newsletter\" class=\"newsletter_popup\">\r\n    <a class=\"close\" href=\"#\"></a>\r\n    <form action=\"/de/agenda/newsletter/\" method=\"get\" novalidate>\r\n        <h3>Newsletter</h3>\r\n        <h2>Corporate Events</h2>\r\n        <fieldset>            \r\n            <div>\r\n                <input type=\"text\" name=\"name\" placeholder=\"Vorname*\">\r\n            </div>\r\n            <div>\r\n                <input type=\"text\" name=\"surname\" placeholder=\"Name*\">\r\n            </div>\r\n            <div>\r\n                <input type=\"text\" name=\"company\" placeholder=\"Firma*\">\r\n            </div>\r\n            <div>\r\n                <input type=\"text\" name=\"company_position\" placeholder=\"Position\">\r\n            </div>\r\n            <div>\r\n                <input type=\"email\" name=\"email\" placeholder=\"E-Mail Adresse*\">\r\n            </div>\r\n            <div>\r\n                <input type=\"text\" name=\"phone\" placeholder=\"Telefon Nummer\">\r\n            </div>\r\n            <div class=\"captcha\">\r\n                <div id=\"g-recaptcha-corporate-newsletter\" class=\"g-recaptcha\" data-sitekey=\"6LckYhETAAAAAPjWEXnzbORJZ8_J9H9cshpICfse\"></div>                \r\n            </div>\r\n            <div class=\"submit\">\r\n                <span>*Pflichtfelder</span>\r\n                <a href=\"/de/agenda/newsletter/\">Senden</a>\r\n            </div>\r\n        </fieldset>\r\n    </form>\r\n</div>\r\n<div id=\"events_newsletter\" class=\"newsletter_popup active\">\r\n    <a class=\"close\" href=\"#\"></a>\r\n    <form action=\"/de/agenda/newsletter/\" method=\"get\" novalidate>\r\n        <h3>Newsletter</h3>\r\n        <h2>Event Newsletter</h2>        \r\n        <fieldset>\r\n            <a href=\"/de/agenda/newsletter/\">PERSONALISIEREN</a>\r\n            <div>\r\n                <input type=\"text\" name=\"name\" placeholder=\"Vorname*\">\r\n            </div>\r\n            <div>\r\n                <input type=\"text\" name=\"surname\" placeholder=\"Name*\">\r\n            </div>            \r\n            <div>\r\n                <input type=\"text\" class=\"date birthday\" name=\"birthday\" placeholder=\"Geburtstag\">\r\n            </div>\r\n            <div>\r\n                <input type=\"email\" name=\"email\" placeholder=\"E-Mail Adresse*\">\r\n            </div>\r\n            <div>\r\n                <div class=\"options\">\r\n                    <div class=\"radio gender\">\r\n                        <em></em>\r\n                        <input id=\"fld_g_gender_f\" type=\"radio\" name=\"gender\" value=\"f\">\r\n                        <label for=\"fld_g_gender_f\">weiblich</label>\r\n                    </div><div class=\"radio gender\">\r\n                        <em></em>\r\n                        <input id=\"fld_g_gender_m\" type=\"radio\" name=\"gender\" value=\"m\">\r\n                        <label for=\"fld_g_gender_m\">m&auml;nnlich</label>\r\n                    </div>\r\n                </div>\r\n            </div>\r\n            <div class=\"captcha\">\r\n                <div id=\"g-recaptcha-events-newsletter\" class=\"g-recaptcha\" data-sitekey=\"6LckYhETAAAAAPjWEXnzbORJZ8_J9H9cshpICfse\"></div>                \r\n            </div>\r\n            <div class=\"submit\">\r\n                <span>*Pflichtfelder</span>\r\n                <a href=\"/de/agenda/newsletter/\">Senden</a>\r\n            </div>\r\n        </fieldset>\r\n    </form>\r\n</div>\r\n    <div class=\"row row-stretch-row-content-no-padding row-css-1\">\r\n        <div class=\"row-wrapper\">\r\n            <div class=\"row-inner-wrapper\">\r\n                <div class=\"col col-sz-12\">\r\n                    <div class=\"col-wrapper\">\r\n    <div class=\"featured\">\r\n        <div class=\"overlay\"></div>\r\n        <ul class=\"rslides\">\r\n            <li>\r\n                <div class=\"image\" style=\"background-image:url('/cache/6110fddcf1b8426c/a53e9320df5ee53a/standartbild-90erparty%28o%29.jpg')\"></div>\r\n                <div class=\"rbg\"></div>\r\n                <div class=\"caption\">\r\n                    <div>\r\n                        <div class=\"text\">\r\n                            <div class=\"bg\"></div>\r\n                            <a href=\"/de/agenda/1311/die-ultimative-90er-party.html\">\r\n                                <h2>Die ultimative 90er Party</h2><br>\r\n                                <h3>Sa 02.11.19<em></em></h3>\r\n                            </a>\r\n                        </div>\r\n                        <div class=\"kbd\"></div>\r\n                    </div>\r\n                </div>\r\n            </li>\r\n            <li>\r\n                <div class=\"image\" style=\"background-image:url('/cache/06b528d3e7c682ee/df359e1e197861ca/lollipop-mickiekrause-15.11.2019-screen%28o%29.jpg')\"></div>\r\n                <div class=\"rbg\"></div>\r\n                <div class=\"caption\">\r\n                    <div>\r\n                        <div class=\"text\">\r\n                            <div class=\"bg\"></div>\r\n                            <a href=\"/de/agenda/1276/lollipop-party-mickie-krause.html\">\r\n                                <h2>Lollipop Party / Mickie Krause</h2><br>\r\n                                <h3>Fr 15.11.19<em></em></h3>\r\n                            </a>\r\n                        </div>\r\n                        <div class=\"kbd\"></div>\r\n                    </div>\r\n                </div>\r\n            </li>\r\n            <li>\r\n                <div class=\"image\" style=\"background-image:url('/cache/a394a44abed1f2cd/6594f1190dc93c70/whatsapp-image-2019-05-17-at-13.29.57%28o%29.jpeg')\"></div>\r\n                <div class=\"rbg\"></div>\r\n                <div class=\"caption\">\r\n                    <div>\r\n                        <div class=\"text\">\r\n                            <div class=\"bg\"></div>\r\n                            <a href=\"/de/agenda/1263/der-schwarze-ball.html\">\r\n                                <h2>Der Schwarze Ball</h2><br>\r\n                                <h3>Sa 16.11.19<em></em></h3>\r\n                            </a>\r\n                        </div>\r\n                        <div class=\"kbd\"></div>\r\n                    </div>\r\n                </div>\r\n            </li>\r\n            <li>\r\n                <div class=\"image\" style=\"background-image:url('/cache/ec6f1ea6765200a3/6fee33a178b017c9/stucard-inhouse-%281%29%28o%29.jpg')\"></div>\r\n                <div class=\"rbg\"></div>\r\n                <div class=\"caption\">\r\n                    <div>\r\n                        <div class=\"text\">\r\n                            <div class=\"bg\"></div>\r\n                            <a href=\"/de/agenda/1328/die-ultimative-2000er-party-.html\">\r\n                                <h2>Die ultimative 2000er Party </h2><br>\r\n                                <h3>Sa 30.11.19<em></em></h3>\r\n                            </a>\r\n                        </div>\r\n                        <div class=\"kbd\"></div>\r\n                    </div>\r\n                </div>\r\n            </li>\r\n            <li>\r\n                <div class=\"image\" style=\"background-image:url('/cache/4592361a204429e5/42e9a0ff73fb9c1b/WLT_21.12_1366x768_X-tra%28o%29.png')\"></div>\r\n                <div class=\"rbg\"></div>\r\n                <div class=\"caption\">\r\n                    <div>\r\n                        <div class=\"text\">\r\n                            <div class=\"bg\"></div>\r\n                            <a href=\"/de/agenda/1370/we-love-techno-switzerland.html\">\r\n                                <h2>We Love Techno Switzerland</h2><br>\r\n                                <h3>Sa 21.12.19<em></em></h3>\r\n                            </a>\r\n                        </div>\r\n                        <div class=\"kbd\"></div>\r\n                    </div>\r\n                </div>\r\n            </li>\r\n        </ul>\r\n        <div class=\"pagination\">\r\n            <ul class=\"rslides_tabs\">\r\n            <li><a href=\"#\"></a></li><li><a href=\"#\"></a></li><li><a href=\"#\"></a></li><li><a href=\"#\"></a></li><li><a href=\"#\"></a></li>\r\n            </ul>\r\n        </div>\r\n    </div>\r\n    <div class=\"intro\">\r\n        <div class=\"content\">\r\n            <div class=\"text\">\r\n                <h1>Veranstaltungs Agenda</h1>\r\n                <h2>Die Übersicht über sämtliche Events im X-TRA.</h2>\r\n            </div><div class=\"tools\">                 \r\n                <div class=\"filter\">\r\n                    <select name=\"filter_id\" data-placeholder=\"Filter\" style=\"width:100%;\">\r\n                        <option value=\"\"></option>\r\n                        <option value=\"/de/agenda/konzerte/\">Konzerte</option>\r\n                        <option value=\"/de/agenda/partys/\">Partys</option>\r\n                        <option value=\"/de/agenda/anlaesse/\">Anlässe</option>\r\n                        <option value=\"/de/agenda/konzert-partypictures/\">Konzert & Partyfotos</option>\r\n                    </select>\r\n                </div>\r\n            </div>\r\n        </div>\r\n    </div>\r\n    <div class=\"events\">                    \r\n    <div class=\"loader\"></div>\r\n    <ul class=\"tile\"><li>\r\n            <a title=\"Blackbear (US)\" href=\"/de/agenda/1235/blackbear-us.html\"><span><em></em><kbd></kbd></span></a><em class=\"tag\">Neue Location</em>\r\n            <div class=\"image\"><div style=\"background-image:url('/cache/2b2377f6cd9a60ec/f3c420b546453fde/blackbearscreen%28r520x520%29.png')\"></div></div><div class=\"text\">\r\n                <h2>Blackbear (US)</h2><br>\r\n                <h3>Mi 23.10.19</h3>\r\n            </div>\r\n        </li><li>\r\n            <a title=\"More Than Mode\" href=\"/de/agenda/1350/more-than-mode.html\" data-series=\"3\"><span><em></em><kbd></kbd></span></a><em class=\"tag\">Serie 10</em>\r\n            <div class=\"image\"><div style=\"background-image:url('/cache/1dc2a69464fa47ba/c0350f472c421af9/03-19-web-1%28r520x520%29.jpg')\"></div></div><div class=\"text\">\r\n                <h2>More Than Mode</h2><br>\r\n                <h3>Mi 23.10.19</h3>\r\n            </div>\r\n        </li><li>\r\n            <a title=\"Hilltop Hoods (AU)\" href=\"/de/agenda/1270/hilltop-hoods-au.html\"><span><em></em><kbd></kbd></span></a>\r\n            <div class=\"image\"><div style=\"background-image:url('/cache/2cd0bb06068165d4/e91b66344d531777/hhauscreen%28r520x520%29.png')\"></div></div><div class=\"text\">\r\n                <h2>Hilltop Hoods (AU)</h2><br>\r\n                <h3>Do 24.10.19</h3>\r\n            </div>\r\n        </li><li>\r\n            <a title=\"Daniel Caesar (CA)\" href=\"/de/agenda/1317/daniel-caesar-ca.html\"><span><em></em><kbd></kbd></span></a>\r\n            <div class=\"image\"><div style=\"background-image:url('/cache/f327b9aafd9f0856/5b5aa33fd24da54a/danielcaesar-website%28r520x520%29.jpg')\"></div></div><div class=\"text\">\r\n                <h2>Daniel Caesar (CA)</h2><br>\r\n                <h3>Fr 25.10.19</h3>\r\n            </div>\r\n        </li><li>\r\n            <a title=\"Worakls Orchestra (FR)\" href=\"/de/agenda/1226/worakls-orchestra-fr.html\"><span><em></em><kbd></kbd></span></a>\r\n            <div class=\"image\"><div style=\"background-image:url('/cache/bf42a05d7aedf5dc/bb5adc3327534fde/woraklswebbild%28r520x520%29.jpg')\"></div></div><div class=\"text\">\r\n                <h2>Worakls Orchestra (FR)</h2><br>\r\n                <h3>Sa 26.10.19</h3>\r\n            </div>\r\n        </li><li>\r\n            <a title=\"The Libertines (UK)\" href=\"/de/agenda/1318/the-libertines-uk.html\"><span><em></em><kbd></kbd></span></a>\r\n            <div class=\"image\"><div style=\"background-image:url('/cache/467a71001ae9607d/6764bf6c9d225401/libertines-2016-1-roger-sargent-img-7866-min%28r520x520%29.jpg')\"></div></div><div class=\"text\">\r\n                <h2>The Libertines (UK)</h2><br>\r\n                <h3>Mo 28.10.19</h3>\r\n            </div>\r\n        </li><li>\r\n            <a title=\"Seat Music Session\" href=\"/de/agenda/1367/seat-music-session.html\"><span><em></em><kbd></kbd></span></a>\r\n            <div class=\"image\"><div style=\"background-image:url('/cache/d326d23494823ebe/17f68ab3123eb523/SEAT_20191002_Webbanner_1560x878px%281%29%28r520x520%29.jpg')\"></div></div><div class=\"text\">\r\n                <h2>Seat Music Session</h2><br>\r\n                <h3>Mi 30.10.19</h3>\r\n            </div>\r\n        </li><li>\r\n            <a title=\"Seat Music Session\" href=\"/de/agenda/1368/seat-music-session.html\"><span><em></em><kbd></kbd></span></a>\r\n            <div class=\"image\"><div style=\"background-image:url('/cache/d326d23494823ebe/17f68ab3123eb523/SEAT_20191002_Webbanner_1560x878px%281%29%28r520x520%29.jpg')\"></div></div><div class=\"text\">\r\n                <h2>Seat Music Session</h2><br>\r\n                <h3>Do 31.10.19</h3>\r\n            </div>\r\n        </li><li>\r\n            <a title=\"Rollschuh Disco\" href=\"/de/agenda/1313/rollschuh-disco.html\"><span><em></em><kbd></kbd></span></a>\r\n            <div class=\"image\"><div style=\"background-image:url('/cache/e7f80c02941844be/87aa729df6604361/webbild-nov19%28r520x520%29.jpg')\"></div></div><div class=\"text\">\r\n                <h2>Rollschuh Disco</h2><br>\r\n                <h3>Fr 01.11.19</h3>\r\n            </div>\r\n        </li>\r\n    </ul><a class=\"more\" href=\"javascript:void(0)\">Alle anzeigen</a>\r\n    <script type=\"application/ld+json\">[{\r\n        \"@context\" : \"http://schema.org\",\r\n        \"@type\" : \"MusicEvent\",\r\n        \"name\" : \"Blackbear (US)\",\r\n        \"image\" : \"https://www.x-tra.ch/upload/_custom/images/events/Concerts/Blackbear%20(US)/blackbearscreen.png\",\r\n        \"startDate\" : \"2019-10-23T20:00\",\r\n        \"location\" : {\r\n            \"@type\" : \"Place\",\r\n            \"name\" : \"X-TRA\",\r\n            \"address\" : \"Limmatstrasse 118, 8005 Zürich\",\r\n            \"sameAs\" : \"http://www.x-tra.ch\"\r\n        },\r\n        \"offers\" : {\r\n            \"@type\" : \"Offer\",\r\n            \"url\" : \"https://www.starticket.ch/de/tickets/blackbear-20191023-2000-x-tra-zurich\"\r\n        },\r\n        \"performer\" : {\r\n            \"@type\" : \"MusicGroup\",\r\n            \"name\" : \"Blackbear\",\r\n            \"sameAs\" : \"https://beartrap.la/about/\"\r\n        }\r\n    },{\r\n        \"@context\" : \"http://schema.org\",\r\n        \"@type\" : \"MusicEvent\",\r\n        \"name\" : \"More Than Mode\",\r\n        \"image\" : \"https://www.x-tra.ch/upload/_custom/images/events/Partys/More%20Than%20Mode/03-19-web-1.jpg\",\r\n        \"startDate\" : \"2019-10-23T22:00\",\r\n        \"location\" : {\r\n            \"@type\" : \"Place\",\r\n            \"name\" : \"X-TRA\",\r\n            \"address\" : \"Limmatstrasse 118, 8005 Zürich\",\r\n            \"sameAs\" : \"http://www.x-tra.ch\"\r\n        },\r\n        \"performer\" : {\r\n            \"@type\" : \"MusicGroup\",\r\n            \"name\" : \"DJs Simone & Belial\"\r\n        }\r\n    },{\r\n        \"@context\" : \"http://schema.org\",\r\n        \"@type\" : \"MusicEvent\",\r\n        \"name\" : \"Hilltop Hoods (AU)\",\r\n        \"image\" : \"https://www.x-tra.ch/upload/_custom/images/events/Concerts/Hilltop%20Hoods%20(AU)/hhauscreen.png\",\r\n        \"startDate\" : \"2019-10-24T20:00\",\r\n        \"location\" : {\r\n            \"@type\" : \"Place\",\r\n            \"name\" : \"X-TRA\",\r\n            \"address\" : \"Limmatstrasse 118, 8005 Zürich\",\r\n            \"sameAs\" : \"http://www.x-tra.ch\"\r\n        },\r\n        \"offers\" : {\r\n            \"@type\" : \"Offer\",\r\n            \"url\" : \"https://www.starticket.ch/de/tickets/hilltop-hoods-20191024-2000-dynamo-saal-zurich\"\r\n        },\r\n        \"performer\" : {\r\n            \"@type\" : \"MusicGroup\",\r\n            \"name\" : \"Hilltop Hoods \",\r\n            \"sameAs\" : \"https://hilltophoods.com/\"\r\n        }\r\n    },{\r\n        \"@context\" : \"http://schema.org\",\r\n        \"@type\" : \"MusicEvent\",\r\n        \"name\" : \"Daniel Caesar (CA)\",\r\n        \"image\" : \"https://www.x-tra.ch/upload/_custom/images/events/Concerts/Daniel%20Caesar%20(CA)/danielcaesar-website.jpg\",\r\n        \"startDate\" : \"2019-10-25T20:00\",\r\n        \"location\" : {\r\n            \"@type\" : \"Place\",\r\n            \"name\" : \"X-TRA\",\r\n            \"address\" : \"Limmatstrasse 118, 8005 Zürich\",\r\n            \"sameAs\" : \"http://www.x-tra.ch\"\r\n        },\r\n        \"offers\" : {\r\n            \"@type\" : \"Offer\",\r\n            \"url\" : \"https://www.starticket.ch/de/tickets/daniel-caesar-20191025-2000-x-tra-zurich\"\r\n        },\r\n        \"performer\" : {\r\n            \"@type\" : \"MusicGroup\",\r\n            \"name\" : \"Daniel Caesar\",\r\n            \"sameAs\" : \"http://www.danielcaesar.com/\"\r\n        }\r\n    },{\r\n        \"@context\" : \"http://schema.org\",\r\n        \"@type\" : \"MusicEvent\",\r\n        \"name\" : \"Worakls Orchestra (FR)\",\r\n        \"image\" : \"https://www.x-tra.ch/upload/_custom/images/events/Concerts/Worakls%20Orchestra/woraklswebbild.jpg\",\r\n        \"startDate\" : \"2019-10-26T20:30\",\r\n        \"location\" : {\r\n            \"@type\" : \"Place\",\r\n            \"name\" : \"X-TRA\",\r\n            \"address\" : \"Limmatstrasse 118, 8005 Zürich\",\r\n            \"sameAs\" : \"http://www.x-tra.ch\"\r\n        },\r\n        \"offers\" : {\r\n            \"@type\" : \"Offer\",\r\n            \"url\" : \"https://www.starticket.ch/de/tickets/worakls-orchestra-20191026-2130-x-tra-zurich?fbclid=IwAR1k-7Tk4mS3l4gfPxIQZj31S-v-apnoIPDIm2igNAD7tW75kAgmBWENV70\"\r\n        },\r\n        \"performer\" : {\r\n            \"@type\" : \"MusicGroup\",\r\n            \"name\" : \"Worakls\",\r\n            \"sameAs\" : \"http://hungrymusic.fr/woraklsorchestra/?fbclid=IwAR05vpuFdfG9Qr2cemPIffm6ONx0mmDh8Qrz3cp-qgQvi7446Q9iwD2Vqsc\"\r\n        }\r\n    },{\r\n        \"@context\" : \"http://schema.org\",\r\n        \"@type\" : \"MusicEvent\",\r\n        \"name\" : \"The Libertines (UK)\",\r\n        \"image\" : \"https://www.x-tra.ch/upload/_custom/images/events/Concerts/The%20Libertines%20(UK)/libertines-2016-1-roger-sargent-img-7866-min.jpg\",\r\n        \"startDate\" : \"2019-10-28T21:00\",\r\n        \"location\" : {\r\n            \"@type\" : \"Place\",\r\n            \"name\" : \"X-TRA\",\r\n            \"address\" : \"Limmatstrasse 118, 8005 Zürich\",\r\n            \"sameAs\" : \"http://www.x-tra.ch\"\r\n        },\r\n        \"offers\" : {\r\n            \"@type\" : \"Offer\",\r\n            \"url\" : \"https://justbecause.ch/shows/show-ticket/the-libertines-x-tra-20191028\"\r\n        },\r\n        \"performer\" : {\r\n            \"@type\" : \"MusicGroup\",\r\n            \"name\" : \"The Libertines (UK)\",\r\n            \"sameAs\" : \"https://www.thelibertines.com/\"\r\n        }\r\n    },{\r\n        \"@context\" : \"http://schema.org\",\r\n        \"@type\" : \"MusicEvent\",\r\n        \"name\" : \"Seat Music Session\",\r\n        \"image\" : \"https://www.x-tra.ch/upload/_custom/images/SEAT_20191002_Webbanner_1560x878px(1).jpg\",\r\n        \"startDate\" : \"2019-10-30T20:00\",\r\n        \"location\" : {\r\n            \"@type\" : \"Place\",\r\n            \"name\" : \"X-TRA\",\r\n            \"address\" : \"Limmatstrasse 118, 8005 Zürich\",\r\n            \"sameAs\" : \"http://www.x-tra.ch\"\r\n        },\r\n        \"offers\" : {\r\n            \"@type\" : \"Offer\",\r\n            \"url\" : \"https://seatmusicsession.ch/#pg-87-4\"\r\n        }\r\n    },{\r\n        \"@context\" : \"http://schema.org\",\r\n        \"@type\" : \"MusicEvent\",\r\n        \"name\" : \"Seat Music Session\",\r\n        \"image\" : \"https://www.x-tra.ch/upload/_custom/images/SEAT_20191002_Webbanner_1560x878px(1).jpg\",\r\n        \"startDate\" : \"2019-10-31T20:00\",\r\n        \"location\" : {\r\n            \"@type\" : \"Place\",\r\n            \"name\" : \"X-TRA\",\r\n            \"address\" : \"Limmatstrasse 118, 8005 Zürich\",\r\n            \"sameAs\" : \"http://www.x-tra.ch\"\r\n        },\r\n        \"offers\" : {\r\n            \"@type\" : \"Offer\",\r\n            \"url\" : \"https://seatmusicsession.ch/#pg-87-4\"\r\n        }\r\n    },{\r\n        \"@context\" : \"http://schema.org\",\r\n        \"@type\" : \"MusicEvent\",\r\n        \"name\" : \"Rollschuh Disco\",\r\n        \"image\" : \"https://www.x-tra.ch/upload/_custom/images/events/Partys/Rollschuh%20Disco%2001.11.19/webbild-nov19.jpg\",\r\n        \"startDate\" : \"2019-11-01T22:00\",\r\n        \"location\" : {\r\n            \"@type\" : \"Place\",\r\n            \"name\" : \"X-TRA\",\r\n            \"address\" : \"Limmatstrasse 118, 8005 Zürich\",\r\n            \"sameAs\" : \"http://www.x-tra.ch\"\r\n        },\r\n        \"offers\" : {\r\n            \"@type\" : \"Offer\",\r\n            \"url\" : \"http://bit.ly/2XxhHsE\"\r\n        }\r\n    }]</script>\r\n    </div>\r\n                    </div>\r\n                </div>\r\n            </div>\r\n        </div>\r\n    </div>\r\n<footer>\r\n    \r\n    <div class=\"row row-stretch-row\">\r\n        <div class=\"row-wrapper\">\r\n            <div class=\"row-inner-wrapper\">\r\n                <div class=\"col col-sz-9\">\r\n                    <div class=\"col-wrapper\"><div class=\"text con-css-footer-1-1-1\"><ul>\n\t<li><a href=\"/de/agenda/\">AGENDA</a></li>\n\t<li><a href=\"/de/agenda/konzerte/\">Konzerte</a></li>\n\t<li><a href=\"/de/agenda/partys/\">Partys</a></li>\n\t<li><a href=\"/de/agenda/anlaesse/\">Kultur Anlässe</a></li>\n\t<li><a href=\"/de/agenda/konzert-partypictures/\">Konzert &amp; Partypictures</a></li>\n\t<li><a href=\"/de/agenda/newsletter/\">Newsletter</a></li>\n</ul>\n\n<ul>\n\t<li><a href=\"/de/location/\">LOCATION</a></li>\n\t<li><a href=\"/de/location/raumangebot/\">Raumangebot</a></li>\n\t<li><a href=\"/de/location/anfrage/\">Anfrage</a></li>\n\t<li><a href=\"/de/location/geschichte/\">Geschichte</a></li>\n\t<li><a href=\"/de/location/architektur/\">Architektur</a></li>\n\t<li><a href=\"/de/location/anfahrt/\">Anfahrt</a></li>\n</ul>\n\n<ul>\n\t<li><a href=\"/de/services/\">SERVICES</a></li>\n\t<li><a href=\"/de/services/eventplaner/\">Eventplaner</a></li>\n\t<li><a href=\"/de/services/eventplanung/\">Eventorganisation</a></li>\n\t<li><a href=\"/de/services/referenzen/\">Referenzen</a></li>\n\t<li><a href=\"/de/services/eventideen/\">Eventideen</a></li>\n\t<li><a href=\"/de/services/hospitality-package/\">Hospitality Packages</a></li>\n\t<li><a href=\"/de/services/technik/\">Technik</a></li>\n\t<li><a href=\"/de/services/catering/\">Catering</a></li>\n\t<li><a href=\"/de/services/dekoration/\">Dekoration</a></li>\n\t<li><a href=\"/de/services/lounge-mieten/\">Lounge mieten</a></li>\n</ul>\n\n<ul>\n\t<li><a href=\"/de/team/\">TEAM</a></li>\n\t<li><a href=\"/de/team/?c=2\">Marketing &amp; Sales</a></li>\n\t<li><a href=\"/de/team/?c=3\">Produktion &amp; Technik</a></li>\n\t<li><a href=\"/de/team/?c=4\">Services &amp; Finanzen</a></li>\n\t<li><a href=\"/de/team/?c=5\">Hotel &amp; Gastronomie</a></li>\n\t<li><a href=\"/de/team/?c=1\">Geschäftsleitung</a></li>\n</ul>\n\n<ul>\n\t<li>MEHR</li>\n\t<li><a href=\"/de/hotel/\">Hotel</a></li>\n\t<li><a href=\"/de/jobs/\">Jobs</a></li>\n\t<li><a href=\"/de/agb/\">AGB</a></li>\n\t<li><a href=\"/de/faq/\">FAQ Events</a></li>\n\t<li><a href=\"/de/hotel/uber-uns/faq/\">FAQ Hotel</a></li>\n\t<li><a href=\"/de/einlassregeln/\">Einlassregeln</a></li>\n\t<li><a href=\"/de/impressum/\">Impressum</a></li>\n</ul>\n</div>\r\n                    </div>\r\n                </div>\r\n                <div class=\"col col-sz-3\">\r\n                    <div class=\"col-wrapper\">\r\n<nav class=\"footer\">\r\n    <ul>\r\n        <li class=\"contact\">\r\n            <a href=\"/de/kontakt/\">Kontakt</a>\r\n        </li><li class=\"social\">\r\n            <ul class=\"social\">\r\n                <li><a class=\"facebook\" target=\"_blank\" href=\"https://www.facebook.com/XTRA.Zuerich?fref=ts\"></a></li>\r\n                <li><a class=\"twitter\" target=\"_blank\" href=\"https://twitter.com/XTRA_Zurich\"></a></li>\r\n                <li><a class=\"instagram\" target=\"_blank\" href=\"https://instagram.com/xtrazuerich\"></a></li>\r\n                <li><a class=\"linkedin\" target=\"_blank\" href=\"https://www.linkedin.com/company/x-tra-production-ag\"></a></li>                            \r\n            </ul>\r\n        </li><li class=\"search\">\r\n            <a class=\"search\" href=\"#\"></a>\r\n        </li>\r\n    </ul>\r\n    <div class=\"footer\"><a href=\"https://www.google.ch/maps/dir//X-TRA+Hotel,+Limmatstrasse+118,+8005+Z%C3%BCrich/@47.3854607,8.528253,17z/data=!4m15!1m6!3m5!1s0x0:0x1da90caff244bd9f!2sX-TRA+Hotel!8m2!3d47.3841227!4d8.5325689!4m7!1m0!1m5!1m1!1s0x47900a126454c2cd:0x1da90caff244bd9f!2m2!1d8.5325689!2d47.3841227?hl=en\" target=\"_blank\">Limmatstrasse 118<br />\r\nPostfach<br />\r\n8031 Z&uuml;rich</a></div>\r\n    <div class=\"copyright\">&copy; Copyright X-Tra Production AG<br />\r\n<span style=\"font-size:12px;\">Website gestaltet von <a href=\"http://nerves.ch\" target=\"_blank\">Nerves</a>, entwickelt von&nbsp;<a href=\"http://www.movepeople.ch\" target=\"_blank\">MovePeople</a></span></div>\r\n</nav>\r\n                    </div>\r\n                </div>\r\n            </div>\r\n        </div>\r\n    </div>\r\n</footer>\r\n<form class=\"search\" method=\"get\" action=\"/de/suchresultate/\">\r\n    <fieldset>\r\n        <a class=\"search\" href=\"javascript:void(0)\"></a>\r\n        <input type=\"text\" autocomplete=\"off\" placeholder=\"Suche\" name=\"q\" value=\"\">\r\n        <input type=\"submit\">\r\n    </fieldset>\r\n</form></div>\r\n</div><script type=\"text/javascript\" src=\"https://www.x-tra.ch/cache/_d64966be203f0ddbdc738f0a7bda01d1.js\"></script>\n<script type=\"text/javascript\" defer async src=\"https://www.google.com/recaptcha/api.js?onload=onCaptchaCallback&render=explicit&hl=de\"></script>\r\n<script>\r\n    (function(i,s,o,g,r,a,m){i['GoogleAnalyticsObject']=r;i[r]=i[r]||function(){\r\n    (i[r].q=i[r].q||[]).push(arguments)},i[r].l=1*new Date();a=s.createElement(o),\r\n    m=s.getElementsByTagName(o)[0];a.async=1;a.src=g;m.parentNode.insertBefore(a,m)\r\n    })(window,document,'script','//www.google-analytics.com/analytics.js','ga');\r\n    ga('create', 'UA-732579-1', 'auto');\r\n    ga('send', 'pageview');\r\n</script></body>\r\n</html>",
        "rawHeaders": [
            "server",
            "nginx",
            "date",
            "sun, 20 oct 2019 16:38:02 gmt",
            "content-type",
            "text/html; charset=utf-8",
            "transfer-encoding",
            "chunked",
            "connection",
            "close",
            "vary",
            "accept-encoding",
            "expires",
            "thu, 19 nov 1981 08:52:00 gmt",
            "cache-control",
            "no-store, no-cache, must-revalidate",
            "pragma",
            "no-cache",
            "set-cookie",
            "nl_popup_e=1; expires=sat, 16-jul-2022 16:38:02 gmt; max-age=86400000; path=/",
            "x-powered-by",
            "plesklin"
        ]
    },
    {
        "scope": "https://www.x-tra.ch:443",
        "method": "GET",
        "path": "/de/agenda/konzerte/",
        "body": "",
        "status": 200,
        "response": "<!DOCTYPE HTML>\r\n<html lang=\"de\">\r\n<head>\r\n<base href=\"https://www.x-tra.ch/\">\n<meta http-equiv=\"content-type\" content=\"text/html; charset=utf-8\">\n<meta charset=\"utf-8\">\n<title>Konzerte | X-TRA</title>\n<meta name=\"author\" content=\"MoveCMS by MovePeople.ch\">\n<meta name=\"format-detection\" content=\"telephone=no\">\n<link rel=\"icon\" type=\"image/x-icon\" href=\"https://www.x-tra.ch/upload/_custom/files/favicon/favicon_blue.ico\">\n<link rel=\"shortcut icon\" href=\"https://www.x-tra.ch/upload/_custom/files/favicon/favicon_blue.ico\">\n<link type=\"text/css\" href=\"https://www.x-tra.ch/cache/_87a26d61393e2cd3f314b3ae48d5d417.css\" media=\"all\" rel=\"stylesheet\">\n<style type=\"text/css\">\r\n                .row-css-1 {\r\n                    background-color: #f2f2f2;\r\n                }</style>\n<link type=\"text/css\" href=\"https://www.x-tra.ch/cache/template_css_1568648938.css\" media=\"all\" rel=\"stylesheet\"><script type=\"text/javascript\">\r\n    var ua=navigator.userAgent.toLocaleLowerCase(),\r\n        regV = /ipod|ipad|iphone/gi,\r\n        result = ua.match(regV),\r\n        userScale=\"\";\r\n    if(!result){\r\n        userScale=\", user-scalable=0\"\r\n    }\r\n    var meta = document.createElement('meta');\r\n    meta.name = \"viewport\";\r\n    meta.content = \"width=device-width, initial-scale=1.0\" + userScale;\r\n    document.getElementsByTagName('head')[0].appendChild(meta);\r\n\r\n    var viewportmeta = document.querySelector && document.querySelector('meta[name=\"viewport\"]'),\r\n    gestureStart = function () {viewportmeta.content = \"width=device-width, minimum-scale=0.25, maximum-scale=1.6\";},\r\n    scaleFix = function () {\r\n        if (viewportmeta && /iphone|ipad/.test(ua) && !/opera mini/.test(ua)) {\r\n            viewportmeta.content = \"width=device-width, minimum-scale=1.0, maximum-scale=1.0\";\r\n            document.addEventListener(\"gesturestart\", gestureStart, false);\r\n        }\r\n    };\r\n    scaleFix();\r\n</script>\r\n\r\n<script>(function(w,d,s,l,i){w[l]=w[l]||[];w[l].push({'gtm.start':\r\nnew Date().getTime(),event:'gtm.js'});var f=d.getElementsByTagName(s)[0],\r\nj=d.createElement(s),dl=l!='dataLayer'?'&l='+l:'';j.async=true;j.src=\r\n'https://www.googletagmanager.com/gtm.js?id='+i+dl;f.parentNode.insertBefore(j,f);\r\n})(window,document,'script','dataLayer','GTM-MWTB2B7');</script></head>\r\n<body class=\"theme_blue\">\r\n\r\n<noscript><iframe src=\"https://www.googletagmanager.com/ns.html?id=GTM-MWTB2B7\" \r\nheight=\"0\" width=\"0\" style=\"display:none;visibility:hidden\"></iframe></noscript><div class=\"page\">\r\n<div class=\"wrapper\">\r\n\r\n<div class=\"cookie-policy\">\r\n    <div class=\"wrapper\">  \r\n        <div class=\"left\">\r\n            <p>Um Ihnen einen optimalen Service zu bieten, verwendet diese Website Cookies. Durch die Nutzung unserer Seite erkl&auml;ren Sie sich damit einverstanden. Mehr Informationen in unserer <a href=\"/de/impressum/\">Datenschutzerkl&auml;rung auf der Seite Impressum</a>.</p>\r\n\r\n        </div><div class=\"right\">\r\n            <a class=\"cookie-policy-accept-button\" href=\"/de/agenda/konzerte/?cookies=accept\">OK</a>\r\n        </div>        \r\n    </div>\r\n</div>\r\n<header>\r\n    <div class=\"content\">\r\n        <div class=\"logo\">\r\n            <a class=\"logo\" href=\"https://www.x-tra.ch/de/\"><img src=\"/upload/_custom/images/design/logo_blue.png\" alt=\"X-TRA\" /></a>\r\n        </div>\r\n        <ul class=\"social\">\r\n            <li><a class=\"facebook\" target=\"_blank\" href=\"https://www.facebook.com/XTRA.Zuerich?fref=ts\"></a></li>\r\n            <li><a class=\"instagram\" target=\"_blank\" href=\"https://instagram.com/xtrazuerich\"></a></li>\r\n            <li><a class=\"linkedin\" target=\"_blank\" href=\"https://www.linkedin.com/company/x-tra-production-ag\"></a></li>            \r\n        </ul>\r\n        <a class=\"ham\" href=\"javascript:void(0)\">\r\n            <span></span>\r\n            <span></span>\r\n            <span></span>\r\n        </a>          \r\n        <nav class=\"main\">\r\n            <a class=\"x\" href=\"#\"></a>          \r\n            <ul>\r\n            <li class=\"active\"><a href=\"/de/agenda/\">Agenda</a><a class=\"submenu\" href=\"#\"></a><ul class=\"submenu\">\r\n                <li class=\"active\"><a href=\"/de/agenda/konzerte/\">Konzerte</a></li>\r\n                <li><a href=\"/de/agenda/partys/\">Partys</a></li>\r\n                <li><a href=\"/de/agenda/anlaesse/\">Anlässe</a></li>\r\n                <li><a href=\"/de/agenda/konzert-partypictures/\">Konzert & Partyfotos</a></li>\r\n                <li><a href=\"/de/agenda/newsletter/\">Newsletter</a></li></ul>\r\n                </li>\r\n            <li><a href=\"/de/location/\">Location</a><a class=\"submenu\" href=\"#\"></a><ul class=\"submenu\">\r\n                <li><a href=\"/de/location/raumangebot/\">Raumangebot</a></li>\r\n                <li><a href=\"/de/location/anfrage/\">Anfrage</a></li>\r\n                <li><a href=\"/de/location/geschichte/\">Geschichte</a></li>\r\n                <li><a href=\"/de/location/architektur/\">Architektur</a></li>\r\n                <li><a href=\"/de/location/anfahrt/\">Anfahrt</a></li></ul>\r\n                </li>\r\n            <li><a href=\"/de/services/\">Services</a><a class=\"submenu\" href=\"#\"></a><ul class=\"submenu\">\r\n                <li><a href=\"/de/services/eventplaner/\">NEU: Eventplaner</a></li>\r\n                <li><a href=\"/de/services/eventplanung/\">Eventorganisation</a></li>\r\n                <li><a href=\"/de/services/referenzen/\">Referenzen</a></li>\r\n                <li><a href=\"/de/services/eventideen/\">Eventideen</a></li>\r\n                <li><a href=\"/de/services/hospitality-package/\">Hospitality Package</a></li>\r\n                <li><a href=\"/de/services/catering/\">Catering</a></li>\r\n                <li><a href=\"/de/services/inszenierung/\">Inszenierung</a></li>\r\n                <li><a href=\"/de/services/lounge-reservation/\">Lounge Reservation</a></li>\r\n                <li><a href=\"/de/services/downloads/\">Technik & Downloads</a></li></ul>\r\n                </li>\r\n            <li><a href=\"/de/team/\">Team</a><a class=\"submenu\" href=\"#\"></a><ul class=\"submenu\">\r\n                <li><a href=\"/de/team/?c=2\">Marketing & Sales</a></li>\r\n                <li><a href=\"/de/team/?c=3\">Produktion & Technik</a></li>\r\n                <li><a href=\"/de/team/?c=4\">Services & Finanzen</a></li>\r\n                <li><a href=\"/de/team/?c=5\">Hotel & Gastronomie</a></li>\r\n                <li><a href=\"/de/team/?c=1\">Geschäftsleitung</a></li></ul>\r\n                </li>\r\n            <li><a href=\"/de/hotel/zimmer/\">Hotel</a>\r\n                </li>\r\n                <li><a href=\"/de/kontakt/\">Kontakt</a>\r\n                <li class=\"lang\">\r\n                    <ul>\r\n                        <li class=\"active\"><a href=\"/de/agenda/konzerte/\">de</a></li>\r\n                        <li><a href=\"/en/agenda/concerts/\">en</a></li>\r\n                    </ul>\r\n                </li>\r\n                <li class=\"social\">\r\n                    <ul class=\"social\">\r\n                        <li><a class=\"facebook\" target=\"_blank\" href=\"https://www.facebook.com/XTRA.Zuerich?fref=ts\"></a></li>\r\n                        <li><a class=\"instagram\" target=\"_blank\" href=\"https://instagram.com/xtrazuerich\"></a></li>\r\n                        <li><a class=\"linkedin\" target=\"_blank\" href=\"https://www.linkedin.com/company/x-tra-production-ag\"></a></li>\r\n                    </ul>\r\n                </li>\r\n                <li class=\"search\"><a class=\"search\" href=\"javascript:void(0)\"></a></li>\r\n            </ul>    \r\n        </nav>\r\n    </div>\r\n</header>\r\n<div id=\"corporate_newsletter\" class=\"newsletter_popup\">\r\n    <a class=\"close\" href=\"#\"></a>\r\n    <form action=\"/de/agenda/newsletter/\" method=\"get\" novalidate>\r\n        <h3>Newsletter</h3>\r\n        <h2>Corporate Events</h2>\r\n        <fieldset>            \r\n            <div>\r\n                <input type=\"text\" name=\"name\" placeholder=\"Vorname*\">\r\n            </div>\r\n            <div>\r\n                <input type=\"text\" name=\"surname\" placeholder=\"Name*\">\r\n            </div>\r\n            <div>\r\n                <input type=\"text\" name=\"company\" placeholder=\"Firma*\">\r\n            </div>\r\n            <div>\r\n                <input type=\"text\" name=\"company_position\" placeholder=\"Position\">\r\n            </div>\r\n            <div>\r\n                <input type=\"email\" name=\"email\" placeholder=\"E-Mail Adresse*\">\r\n            </div>\r\n            <div>\r\n                <input type=\"text\" name=\"phone\" placeholder=\"Telefon Nummer\">\r\n            </div>\r\n            <div class=\"captcha\">\r\n                <div id=\"g-recaptcha-corporate-newsletter\" class=\"g-recaptcha\" data-sitekey=\"6LckYhETAAAAAPjWEXnzbORJZ8_J9H9cshpICfse\"></div>                \r\n            </div>\r\n            <div class=\"submit\">\r\n                <span>*Pflichtfelder</span>\r\n                <a href=\"/de/agenda/newsletter/\">Senden</a>\r\n            </div>\r\n        </fieldset>\r\n    </form>\r\n</div>\r\n<div id=\"events_newsletter\" class=\"newsletter_popup active\">\r\n    <a class=\"close\" href=\"#\"></a>\r\n    <form action=\"/de/agenda/newsletter/\" method=\"get\" novalidate>\r\n        <h3>Newsletter</h3>\r\n        <h2>Event Newsletter</h2>        \r\n        <fieldset>\r\n            <a href=\"/de/agenda/newsletter/\">PERSONALISIEREN</a>\r\n            <div>\r\n                <input type=\"text\" name=\"name\" placeholder=\"Vorname*\">\r\n            </div>\r\n            <div>\r\n                <input type=\"text\" name=\"surname\" placeholder=\"Name*\">\r\n            </div>            \r\n            <div>\r\n                <input type=\"text\" class=\"date birthday\" name=\"birthday\" placeholder=\"Geburtstag\">\r\n            </div>\r\n            <div>\r\n                <input type=\"email\" name=\"email\" placeholder=\"E-Mail Adresse*\">\r\n            </div>\r\n            <div>\r\n                <div class=\"options\">\r\n                    <div class=\"radio gender\">\r\n                        <em></em>\r\n                        <input id=\"fld_g_gender_f\" type=\"radio\" name=\"gender\" value=\"f\">\r\n                        <label for=\"fld_g_gender_f\">weiblich</label>\r\n                    </div><div class=\"radio gender\">\r\n                        <em></em>\r\n                        <input id=\"fld_g_gender_m\" type=\"radio\" name=\"gender\" value=\"m\">\r\n                        <label for=\"fld_g_gender_m\">m&auml;nnlich</label>\r\n                    </div>\r\n                </div>\r\n            </div>\r\n            <div class=\"captcha\">\r\n                <div id=\"g-recaptcha-events-newsletter\" class=\"g-recaptcha\" data-sitekey=\"6LckYhETAAAAAPjWEXnzbORJZ8_J9H9cshpICfse\"></div>                \r\n            </div>\r\n            <div class=\"submit\">\r\n                <span>*Pflichtfelder</span>\r\n                <a href=\"/de/agenda/newsletter/\">Senden</a>\r\n            </div>\r\n        </fieldset>\r\n    </form>\r\n</div>\r\n    <div class=\"row row-stretch-row-content-no-padding row-css-1\">\r\n        <div class=\"row-wrapper\">\r\n            <div class=\"row-inner-wrapper\">\r\n                <div class=\"col col-sz-12\">\r\n                    <div class=\"col-wrapper\">\r\n    <div class=\"featured\">\r\n        <div class=\"overlay\"></div>\r\n        <ul class=\"rslides\">\r\n            <li>\r\n                <div class=\"image\" style=\"background-image:url('/cache/a394a44abed1f2cd/6594f1190dc93c70/whatsapp-image-2019-05-17-at-13.29.57%28o%29.jpeg')\"></div>\r\n                <div class=\"rbg\"></div>\r\n                <div class=\"caption\">\r\n                    <div>\r\n                        <div class=\"text\">\r\n                            <div class=\"bg\"></div>\r\n                            <a href=\"/de/agenda/konzerte/1263/der-schwarze-ball.html\">\r\n                                <h2>Der Schwarze Ball</h2><br>\r\n                                <h3>Sa 16.11.19<em></em></h3>\r\n                            </a>\r\n                        </div>\r\n                        <div class=\"kbd\"></div>\r\n                    </div>\r\n                </div>\r\n            </li>\r\n            <li>\r\n                <div class=\"image\" style=\"background-image:url('/cache/2b2377f6cd9a60ec/f3c420b546453fde/blackbearscreen%28o%29.png')\"></div>\r\n                <div class=\"rbg\"></div>\r\n                <div class=\"caption\">\r\n                    <div>\r\n                        <div class=\"text\">\r\n                            <div class=\"bg\"></div>\r\n                            <a href=\"/de/agenda/konzerte/1235/blackbear-us.html\">\r\n                                <h2>Blackbear (US)</h2><br>\r\n                                <h3>Mi 23.10.19<em></em></h3>\r\n                            </a>\r\n                        </div>\r\n                        <div class=\"kbd\"></div>\r\n                    </div>\r\n                </div>\r\n            </li>\r\n            <li>\r\n                <div class=\"image\" style=\"background-image:url('/cache/2cd0bb06068165d4/e91b66344d531777/hhauscreen%28o%29.png')\"></div>\r\n                <div class=\"rbg\"></div>\r\n                <div class=\"caption\">\r\n                    <div>\r\n                        <div class=\"text\">\r\n                            <div class=\"bg\"></div>\r\n                            <a href=\"/de/agenda/konzerte/1270/hilltop-hoods-au.html\">\r\n                                <h2>Hilltop Hoods (AU)</h2><br>\r\n                                <h3>Do 24.10.19<em></em></h3>\r\n                            </a>\r\n                        </div>\r\n                        <div class=\"kbd\"></div>\r\n                    </div>\r\n                </div>\r\n            </li>\r\n            <li>\r\n                <div class=\"image\" style=\"background-image:url('/cache/f327b9aafd9f0856/5b5aa33fd24da54a/danielcaesar-website%28o%29.jpg')\"></div>\r\n                <div class=\"rbg\"></div>\r\n                <div class=\"caption\">\r\n                    <div>\r\n                        <div class=\"text\">\r\n                            <div class=\"bg\"></div>\r\n                            <a href=\"/de/agenda/konzerte/1317/daniel-caesar-ca.html\">\r\n                                <h2>Daniel Caesar (CA)</h2><br>\r\n                                <h3>Fr 25.10.19<em></em></h3>\r\n                            </a>\r\n                        </div>\r\n                        <div class=\"kbd\"></div>\r\n                    </div>\r\n                </div>\r\n            </li>\r\n            <li>\r\n                <div class=\"image\" style=\"background-image:url('/cache/bf42a05d7aedf5dc/bb5adc3327534fde/woraklswebbild%28o%29.jpg')\"></div>\r\n                <div class=\"rbg\"></div>\r\n                <div class=\"caption\">\r\n                    <div>\r\n                        <div class=\"text\">\r\n                            <div class=\"bg\"></div>\r\n                            <a href=\"/de/agenda/konzerte/1226/worakls-orchestra-fr.html\">\r\n                                <h2>Worakls Orchestra (FR)</h2><br>\r\n                                <h3>Sa 26.10.19<em></em></h3>\r\n                            </a>\r\n                        </div>\r\n                        <div class=\"kbd\"></div>\r\n                    </div>\r\n                </div>\r\n            </li>\r\n        </ul>\r\n        <div class=\"pagination\">\r\n            <ul class=\"rslides_tabs\">\r\n            <li><a href=\"#\"></a></li><li><a href=\"#\"></a></li><li><a href=\"#\"></a></li><li><a href=\"#\"></a></li><li><a href=\"#\"></a></li>\r\n            </ul>\r\n        </div>\r\n    </div>\r\n    <div class=\"intro\">\r\n        <div class=\"content\">\r\n            <div class=\"text\">\r\n                <h1>Konzert Agenda</h1>\r\n                <h2>Die nächsten Live-Highlights auf der Bühne.</h2>\r\n            </div><div class=\"tools\">                 \r\n                <div class=\"filter\">\r\n                    <select name=\"filter_id\" data-placeholder=\"Filter\" style=\"width:100%;\">\r\n                        <option value=\"\"></option>\r\n                        <option value=\"/de/agenda/konzerte/\" selected=\"selected\">Konzerte</option>\r\n                        <option value=\"/de/agenda/partys/\">Partys</option>\r\n                        <option value=\"/de/agenda/anlaesse/\">Anlässe</option>\r\n                        <option value=\"/de/agenda/konzert-partypictures/\">Konzert & Partyfotos</option>\r\n                    </select>\r\n                </div>\r\n            </div>\r\n        </div>\r\n    </div>\r\n    <div class=\"events\">                    \r\n    <div class=\"loader\"></div>\r\n    <ul class=\"tile\"><li>\r\n            <a title=\"Blackbear (US)\" href=\"/de/agenda/konzerte/1235/blackbear-us.html\"><span><em></em><kbd></kbd></span></a><em class=\"tag\">Neue Location</em>\r\n            <div class=\"image\"><div style=\"background-image:url('/cache/2b2377f6cd9a60ec/f3c420b546453fde/blackbearscreen%28r520x520%29.png')\"></div></div><div class=\"text\">\r\n                <h2>Blackbear (US)</h2><br>\r\n                <h3>Mi 23.10.19</h3>\r\n            </div>\r\n        </li><li>\r\n            <a title=\"Hilltop Hoods (AU)\" href=\"/de/agenda/konzerte/1270/hilltop-hoods-au.html\"><span><em></em><kbd></kbd></span></a>\r\n            <div class=\"image\"><div style=\"background-image:url('/cache/2cd0bb06068165d4/e91b66344d531777/hhauscreen%28r520x520%29.png')\"></div></div><div class=\"text\">\r\n                <h2>Hilltop Hoods (AU)</h2><br>\r\n                <h3>Do 24.10.19</h3>\r\n            </div>\r\n        </li><li>\r\n            <a title=\"Daniel Caesar (CA)\" href=\"/de/agenda/konzerte/1317/daniel-caesar-ca.html\"><span><em></em><kbd></kbd></span></a>\r\n            <div class=\"image\"><div style=\"background-image:url('/cache/f327b9aafd9f0856/5b5aa33fd24da54a/danielcaesar-website%28r520x520%29.jpg')\"></div></div><div class=\"text\">\r\n                <h2>Daniel Caesar (CA)</h2><br>\r\n                <h3>Fr 25.10.19</h3>\r\n            </div>\r\n        </li><li>\r\n            <a title=\"Worakls Orchestra (FR)\" href=\"/de/agenda/konzerte/1226/worakls-orchestra-fr.html\"><span><em></em><kbd></kbd></span></a>\r\n            <div class=\"image\"><div style=\"background-image:url('/cache/bf42a05d7aedf5dc/bb5adc3327534fde/woraklswebbild%28r520x520%29.jpg')\"></div></div><div class=\"text\">\r\n                <h2>Worakls Orchestra (FR)</h2><br>\r\n                <h3>Sa 26.10.19</h3>\r\n            </div>\r\n        </li><li>\r\n            <a title=\"The Libertines (UK)\" href=\"/de/agenda/konzerte/1318/the-libertines-uk.html\"><span><em></em><kbd></kbd></span></a>\r\n            <div class=\"image\"><div style=\"background-image:url('/cache/467a71001ae9607d/6764bf6c9d225401/libertines-2016-1-roger-sargent-img-7866-min%28r520x520%29.jpg')\"></div></div><div class=\"text\">\r\n                <h2>The Libertines (UK)</h2><br>\r\n                <h3>Mo 28.10.19</h3>\r\n            </div>\r\n        </li><li>\r\n            <a title=\"Seat Music Session\" href=\"/de/agenda/konzerte/1367/seat-music-session.html\"><span><em></em><kbd></kbd></span></a>\r\n            <div class=\"image\"><div style=\"background-image:url('/cache/d326d23494823ebe/17f68ab3123eb523/SEAT_20191002_Webbanner_1560x878px%281%29%28r520x520%29.jpg')\"></div></div><div class=\"text\">\r\n                <h2>Seat Music Session</h2><br>\r\n                <h3>Mi 30.10.19</h3>\r\n            </div>\r\n        </li><li>\r\n            <a title=\"Seat Music Session\" href=\"/de/agenda/konzerte/1368/seat-music-session.html\"><span><em></em><kbd></kbd></span></a>\r\n            <div class=\"image\"><div style=\"background-image:url('/cache/d326d23494823ebe/17f68ab3123eb523/SEAT_20191002_Webbanner_1560x878px%281%29%28r520x520%29.jpg')\"></div></div><div class=\"text\">\r\n                <h2>Seat Music Session</h2><br>\r\n                <h3>Do 31.10.19</h3>\r\n            </div>\r\n        </li><li>\r\n            <a title=\"Yungblud (UK)\" href=\"/de/agenda/konzerte/1319/yungblud-uk.html\"><span><em></em><kbd></kbd></span></a>\r\n            <div class=\"image\"><div style=\"background-image:url('/cache/b0c100483acda6ee/e929fcbd963684a6/yungblud%28r520x520%29.png')\"></div></div><div class=\"text\">\r\n                <h2>Yungblud (UK)</h2><br>\r\n                <h3>So 03.11.19</h3>\r\n            </div>\r\n        </li><li>\r\n            <a title=\"James Blake (UK)\" href=\"/de/agenda/konzerte/1262/james-blake-uk.html\"><span><em></em><kbd></kbd></span></a><em class=\"tag\">Verschoben</em>\r\n            <div class=\"image\"><div style=\"background-image:url('/cache/3fef86132b5496cf/580f2850df5ca1f4/jamesblakehp%28r520x520%29.png')\"></div></div><div class=\"text\">\r\n                <h2>James Blake (UK)</h2><br>\r\n                <h3>Mo 04.11.19</h3>\r\n            </div>\r\n        </li>\r\n    </ul><a class=\"more\" href=\"javascript:void(0)\">Alle anzeigen</a>\r\n    <script type=\"application/ld+json\">[{\r\n        \"@context\" : \"http://schema.org\",\r\n        \"@type\" : \"MusicEvent\",\r\n        \"name\" : \"Blackbear (US)\",\r\n        \"image\" : \"https://www.x-tra.ch/upload/_custom/images/events/Concerts/Blackbear%20(US)/blackbearscreen.png\",\r\n        \"startDate\" : \"2019-10-23T20:00\",\r\n        \"location\" : {\r\n            \"@type\" : \"Place\",\r\n            \"name\" : \"X-TRA\",\r\n            \"address\" : \"Limmatstrasse 118, 8005 Zürich\",\r\n            \"sameAs\" : \"http://www.x-tra.ch\"\r\n        },\r\n        \"offers\" : {\r\n            \"@type\" : \"Offer\",\r\n            \"url\" : \"https://www.starticket.ch/de/tickets/blackbear-20191023-2000-x-tra-zurich\"\r\n        },\r\n        \"performer\" : {\r\n            \"@type\" : \"MusicGroup\",\r\n            \"name\" : \"Blackbear\",\r\n            \"sameAs\" : \"https://beartrap.la/about/\"\r\n        }\r\n    },{\r\n        \"@context\" : \"http://schema.org\",\r\n        \"@type\" : \"MusicEvent\",\r\n        \"name\" : \"Hilltop Hoods (AU)\",\r\n        \"image\" : \"https://www.x-tra.ch/upload/_custom/images/events/Concerts/Hilltop%20Hoods%20(AU)/hhauscreen.png\",\r\n        \"startDate\" : \"2019-10-24T20:00\",\r\n        \"location\" : {\r\n            \"@type\" : \"Place\",\r\n            \"name\" : \"X-TRA\",\r\n            \"address\" : \"Limmatstrasse 118, 8005 Zürich\",\r\n            \"sameAs\" : \"http://www.x-tra.ch\"\r\n        },\r\n        \"offers\" : {\r\n            \"@type\" : \"Offer\",\r\n            \"url\" : \"https://www.starticket.ch/de/tickets/hilltop-hoods-20191024-2000-dynamo-saal-zurich\"\r\n        },\r\n        \"performer\" : {\r\n            \"@type\" : \"MusicGroup\",\r\n            \"name\" : \"Hilltop Hoods \",\r\n            \"sameAs\" : \"https://hilltophoods.com/\"\r\n        }\r\n    },{\r\n        \"@context\" : \"http://schema.org\",\r\n        \"@type\" : \"MusicEvent\",\r\n        \"name\" : \"Daniel Caesar (CA)\",\r\n        \"image\" : \"https://www.x-tra.ch/upload/_custom/images/events/Concerts/Daniel%20Caesar%20(CA)/danielcaesar-website.jpg\",\r\n        \"startDate\" : \"2019-10-25T20:00\",\r\n        \"location\" : {\r\n            \"@type\" : \"Place\",\r\n            \"name\" : \"X-TRA\",\r\n            \"address\" : \"Limmatstrasse 118, 8005 Zürich\",\r\n            \"sameAs\" : \"http://www.x-tra.ch\"\r\n        },\r\n        \"offers\" : {\r\n            \"@type\" : \"Offer\",\r\n            \"url\" : \"https://www.starticket.ch/de/tickets/daniel-caesar-20191025-2000-x-tra-zurich\"\r\n        },\r\n        \"performer\" : {\r\n            \"@type\" : \"MusicGroup\",\r\n            \"name\" : \"Daniel Caesar\",\r\n            \"sameAs\" : \"http://www.danielcaesar.com/\"\r\n        }\r\n    },{\r\n        \"@context\" : \"http://schema.org\",\r\n        \"@type\" : \"MusicEvent\",\r\n        \"name\" : \"Worakls Orchestra (FR)\",\r\n        \"image\" : \"https://www.x-tra.ch/upload/_custom/images/events/Concerts/Worakls%20Orchestra/woraklswebbild.jpg\",\r\n        \"startDate\" : \"2019-10-26T20:30\",\r\n        \"location\" : {\r\n            \"@type\" : \"Place\",\r\n            \"name\" : \"X-TRA\",\r\n            \"address\" : \"Limmatstrasse 118, 8005 Zürich\",\r\n            \"sameAs\" : \"http://www.x-tra.ch\"\r\n        },\r\n        \"offers\" : {\r\n            \"@type\" : \"Offer\",\r\n            \"url\" : \"https://www.starticket.ch/de/tickets/worakls-orchestra-20191026-2130-x-tra-zurich?fbclid=IwAR1k-7Tk4mS3l4gfPxIQZj31S-v-apnoIPDIm2igNAD7tW75kAgmBWENV70\"\r\n        },\r\n        \"performer\" : {\r\n            \"@type\" : \"MusicGroup\",\r\n            \"name\" : \"Worakls\",\r\n            \"sameAs\" : \"http://hungrymusic.fr/woraklsorchestra/?fbclid=IwAR05vpuFdfG9Qr2cemPIffm6ONx0mmDh8Qrz3cp-qgQvi7446Q9iwD2Vqsc\"\r\n        }\r\n    },{\r\n        \"@context\" : \"http://schema.org\",\r\n        \"@type\" : \"MusicEvent\",\r\n        \"name\" : \"The Libertines (UK)\",\r\n        \"image\" : \"https://www.x-tra.ch/upload/_custom/images/events/Concerts/The%20Libertines%20(UK)/libertines-2016-1-roger-sargent-img-7866-min.jpg\",\r\n        \"startDate\" : \"2019-10-28T21:00\",\r\n        \"location\" : {\r\n            \"@type\" : \"Place\",\r\n            \"name\" : \"X-TRA\",\r\n            \"address\" : \"Limmatstrasse 118, 8005 Zürich\",\r\n            \"sameAs\" : \"http://www.x-tra.ch\"\r\n        },\r\n        \"offers\" : {\r\n            \"@type\" : \"Offer\",\r\n            \"url\" : \"https://justbecause.ch/shows/show-ticket/the-libertines-x-tra-20191028\"\r\n        },\r\n        \"performer\" : {\r\n            \"@type\" : \"MusicGroup\",\r\n            \"name\" : \"The Libertines (UK)\",\r\n            \"sameAs\" : \"https://www.thelibertines.com/\"\r\n        }\r\n    },{\r\n        \"@context\" : \"http://schema.org\",\r\n        \"@type\" : \"MusicEvent\",\r\n        \"name\" : \"Seat Music Session\",\r\n        \"image\" : \"https://www.x-tra.ch/upload/_custom/images/SEAT_20191002_Webbanner_1560x878px(1).jpg\",\r\n        \"startDate\" : \"2019-10-30T20:00\",\r\n        \"location\" : {\r\n            \"@type\" : \"Place\",\r\n            \"name\" : \"X-TRA\",\r\n            \"address\" : \"Limmatstrasse 118, 8005 Zürich\",\r\n            \"sameAs\" : \"http://www.x-tra.ch\"\r\n        },\r\n        \"offers\" : {\r\n            \"@type\" : \"Offer\",\r\n            \"url\" : \"https://seatmusicsession.ch/#pg-87-4\"\r\n        }\r\n    },{\r\n        \"@context\" : \"http://schema.org\",\r\n        \"@type\" : \"MusicEvent\",\r\n        \"name\" : \"Seat Music Session\",\r\n        \"image\" : \"https://www.x-tra.ch/upload/_custom/images/SEAT_20191002_Webbanner_1560x878px(1).jpg\",\r\n        \"startDate\" : \"2019-10-31T20:00\",\r\n        \"location\" : {\r\n            \"@type\" : \"Place\",\r\n            \"name\" : \"X-TRA\",\r\n            \"address\" : \"Limmatstrasse 118, 8005 Zürich\",\r\n            \"sameAs\" : \"http://www.x-tra.ch\"\r\n        },\r\n        \"offers\" : {\r\n            \"@type\" : \"Offer\",\r\n            \"url\" : \"https://seatmusicsession.ch/#pg-87-4\"\r\n        }\r\n    },{\r\n        \"@context\" : \"http://schema.org\",\r\n        \"@type\" : \"MusicEvent\",\r\n        \"name\" : \"Yungblud (UK)\",\r\n        \"image\" : \"https://www.x-tra.ch/upload/_custom/images/events/Concerts/Yungblud%20(UK)/yungblud.png\",\r\n        \"startDate\" : \"2019-11-03T20:00\",\r\n        \"location\" : {\r\n            \"@type\" : \"Place\",\r\n            \"name\" : \"X-TRA\",\r\n            \"address\" : \"Limmatstrasse 118, 8005 Zürich\",\r\n            \"sameAs\" : \"http://www.x-tra.ch\"\r\n        },\r\n        \"performer\" : {\r\n            \"@type\" : \"MusicGroup\",\r\n            \"name\" : \"Yungblud (UK)\",\r\n            \"sameAs\" : \"www.yungbludofficial.com\"\r\n        }\r\n    },{\r\n        \"@context\" : \"http://schema.org\",\r\n        \"@type\" : \"MusicEvent\",\r\n        \"name\" : \"James Blake (UK)\",\r\n        \"image\" : \"https://www.x-tra.ch/upload/_custom/images/events/Concerts/James%20Blake%20(UK)/jamesblakehp.png\",\r\n        \"startDate\" : \"2019-11-04T20:00\",\r\n        \"eventStatus\" : \"EventRescheduled\"\r\n        \"location\" : {\r\n            \"@type\" : \"Place\",\r\n            \"name\" : \"X-TRA\",\r\n            \"address\" : \"Limmatstrasse 118, 8005 Zürich\",\r\n            \"sameAs\" : \"http://www.x-tra.ch\"\r\n        },\r\n        \"offers\" : {\r\n            \"@type\" : \"Offer\",\r\n            \"url\" : \"https://justbecause.ch/shows/show-ticket/james-blake-x-tra-20191104\"\r\n        },\r\n        \"performer\" : {\r\n            \"@type\" : \"MusicGroup\",\r\n            \"name\" : \"James Blake\",\r\n            \"sameAs\" : \"https://www.jamesblakemusic.com\"\r\n        }\r\n    }]</script>\r\n    </div>\r\n                    </div>\r\n                </div>\r\n            </div>\r\n        </div>\r\n    </div>\r\n<footer>\r\n    \r\n    <div class=\"row row-stretch-row\">\r\n        <div class=\"row-wrapper\">\r\n            <div class=\"row-inner-wrapper\">\r\n                <div class=\"col col-sz-9\">\r\n                    <div class=\"col-wrapper\"><div class=\"text con-css-footer-1-1-1\"><ul>\n\t<li><a href=\"/de/agenda/\">AGENDA</a></li>\n\t<li><a href=\"/de/agenda/konzerte/\">Konzerte</a></li>\n\t<li><a href=\"/de/agenda/partys/\">Partys</a></li>\n\t<li><a href=\"/de/agenda/anlaesse/\">Kultur Anlässe</a></li>\n\t<li><a href=\"/de/agenda/konzert-partypictures/\">Konzert &amp; Partypictures</a></li>\n\t<li><a href=\"/de/agenda/newsletter/\">Newsletter</a></li>\n</ul>\n\n<ul>\n\t<li><a href=\"/de/location/\">LOCATION</a></li>\n\t<li><a href=\"/de/location/raumangebot/\">Raumangebot</a></li>\n\t<li><a href=\"/de/location/anfrage/\">Anfrage</a></li>\n\t<li><a href=\"/de/location/geschichte/\">Geschichte</a></li>\n\t<li><a href=\"/de/location/architektur/\">Architektur</a></li>\n\t<li><a href=\"/de/location/anfahrt/\">Anfahrt</a></li>\n</ul>\n\n<ul>\n\t<li><a href=\"/de/services/\">SERVICES</a></li>\n\t<li><a href=\"/de/services/eventplaner/\">Eventplaner</a></li>\n\t<li><a href=\"/de/services/eventplanung/\">Eventorganisation</a></li>\n\t<li><a href=\"/de/services/referenzen/\">Referenzen</a></li>\n\t<li><a href=\"/de/services/eventideen/\">Eventideen</a></li>\n\t<li><a href=\"/de/services/hospitality-package/\">Hospitality Packages</a></li>\n\t<li><a href=\"/de/services/technik/\">Technik</a></li>\n\t<li><a href=\"/de/services/catering/\">Catering</a></li>\n\t<li><a href=\"/de/services/dekoration/\">Dekoration</a></li>\n\t<li><a href=\"/de/services/lounge-mieten/\">Lounge mieten</a></li>\n</ul>\n\n<ul>\n\t<li><a href=\"/de/team/\">TEAM</a></li>\n\t<li><a href=\"/de/team/?c=2\">Marketing &amp; Sales</a></li>\n\t<li><a href=\"/de/team/?c=3\">Produktion &amp; Technik</a></li>\n\t<li><a href=\"/de/team/?c=4\">Services &amp; Finanzen</a></li>\n\t<li><a href=\"/de/team/?c=5\">Hotel &amp; Gastronomie</a></li>\n\t<li><a href=\"/de/team/?c=1\">Geschäftsleitung</a></li>\n</ul>\n\n<ul>\n\t<li>MEHR</li>\n\t<li><a href=\"/de/hotel/\">Hotel</a></li>\n\t<li><a href=\"/de/jobs/\">Jobs</a></li>\n\t<li><a href=\"/de/agb/\">AGB</a></li>\n\t<li><a href=\"/de/faq/\">FAQ Events</a></li>\n\t<li><a href=\"/de/hotel/uber-uns/faq/\">FAQ Hotel</a></li>\n\t<li><a href=\"/de/einlassregeln/\">Einlassregeln</a></li>\n\t<li><a href=\"/de/impressum/\">Impressum</a></li>\n</ul>\n</div>\r\n                    </div>\r\n                </div>\r\n                <div class=\"col col-sz-3\">\r\n                    <div class=\"col-wrapper\">\r\n<nav class=\"footer\">\r\n    <ul>\r\n        <li class=\"contact\">\r\n            <a href=\"/de/kontakt/\">Kontakt</a>\r\n        </li><li class=\"social\">\r\n            <ul class=\"social\">\r\n                <li><a class=\"facebook\" target=\"_blank\" href=\"https://www.facebook.com/XTRA.Zuerich?fref=ts\"></a></li>\r\n                <li><a class=\"twitter\" target=\"_blank\" href=\"https://twitter.com/XTRA_Zurich\"></a></li>\r\n                <li><a class=\"instagram\" target=\"_blank\" href=\"https://instagram.com/xtrazuerich\"></a></li>\r\n                <li><a class=\"linkedin\" target=\"_blank\" href=\"https://www.linkedin.com/company/x-tra-production-ag\"></a></li>                            \r\n            </ul>\r\n        </li><li class=\"search\">\r\n            <a class=\"search\" href=\"#\"></a>\r\n        </li>\r\n    </ul>\r\n    <div class=\"footer\"><a href=\"https://www.google.ch/maps/dir//X-TRA+Hotel,+Limmatstrasse+118,+8005+Z%C3%BCrich/@47.3854607,8.528253,17z/data=!4m15!1m6!3m5!1s0x0:0x1da90caff244bd9f!2sX-TRA+Hotel!8m2!3d47.3841227!4d8.5325689!4m7!1m0!1m5!1m1!1s0x47900a126454c2cd:0x1da90caff244bd9f!2m2!1d8.5325689!2d47.3841227?hl=en\" target=\"_blank\">Limmatstrasse 118<br />\r\nPostfach<br />\r\n8031 Z&uuml;rich</a></div>\r\n    <div class=\"copyright\">&copy; Copyright X-Tra Production AG<br />\r\n<span style=\"font-size:12px;\">Website gestaltet von <a href=\"http://nerves.ch\" target=\"_blank\">Nerves</a>, entwickelt von&nbsp;<a href=\"http://www.movepeople.ch\" target=\"_blank\">MovePeople</a></span></div>\r\n</nav>\r\n                    </div>\r\n                </div>\r\n            </div>\r\n        </div>\r\n    </div>\r\n</footer>\r\n<form class=\"search\" method=\"get\" action=\"/de/suchresultate/\">\r\n    <fieldset>\r\n        <a class=\"search\" href=\"javascript:void(0)\"></a>\r\n        <input type=\"text\" autocomplete=\"off\" placeholder=\"Suche\" name=\"q\" value=\"\">\r\n        <input type=\"submit\">\r\n    </fieldset>\r\n</form></div>\r\n</div><script type=\"text/javascript\" src=\"https://www.x-tra.ch/cache/_d64966be203f0ddbdc738f0a7bda01d1.js\"></script>\n<script type=\"text/javascript\" defer async src=\"https://www.google.com/recaptcha/api.js?onload=onCaptchaCallback&render=explicit&hl=de\"></script>\r\n<script>\r\n    (function(i,s,o,g,r,a,m){i['GoogleAnalyticsObject']=r;i[r]=i[r]||function(){\r\n    (i[r].q=i[r].q||[]).push(arguments)},i[r].l=1*new Date();a=s.createElement(o),\r\n    m=s.getElementsByTagName(o)[0];a.async=1;a.src=g;m.parentNode.insertBefore(a,m)\r\n    })(window,document,'script','//www.google-analytics.com/analytics.js','ga');\r\n    ga('create', 'UA-732579-1', 'auto');\r\n    ga('send', 'pageview');\r\n</script></body>\r\n</html>",
        "rawHeaders": [
            "server",
            "nginx",
            "date",
            "sun, 20 oct 2019 16:38:03 gmt",
            "content-type",
            "text/html; charset=utf-8",
            "transfer-encoding",
            "chunked",
            "connection",
            "close",
            "vary",
            "accept-encoding",
            "expires",
            "thu, 19 nov 1981 08:52:00 gmt",
            "cache-control",
            "no-store, no-cache, must-revalidate",
            "pragma",
            "no-cache",
            "set-cookie",
            "nl_popup_e=1; expires=sat, 16-jul-2022 16:38:03 gmt; max-age=86400000; path=/",
            "x-powered-by",
            "plesklin"
        ]
    }
]