// Jest Snapshot v1, https://goo.gl/fbAQLP

exports[`Kontikibar kontikibar-2019-04-28 1`] = `
[
  EventData {
    "description": "Jam Session (Season 18/19)",
    "genres": [],
    "links": [
      {
        "label": "Facebook",
        "url": "https://facebook.com/events/468008510389188",
      },
    ],
    "sourceUrl": "https://kontikibar.ch/",
    "time": 2019-05-01 20:00 - 2019-05-01 23:00 (Europe/Zurich),
    "venueName": "Kon-Tiki Bar",
  },
  EventData {
    "description": "Comedy Nights Open Mic",
    "genres": [],
    "links": [
      {
        "label": "Facebook",
        "url": "https://facebook.com/events/316078155695970",
      },
    ],
    "sourceUrl": "https://kontikibar.ch/",
    "time": 2019-05-07 19:30 - 2019-05-07 21:30 (Europe/Zurich),
    "venueName": "Kon-Tiki Bar",
  },
  EventData {
    "description": "Style Bakery feat. Greis & Big Zis",
    "genres": [],
    "links": [
      {
        "label": "Facebook",
        "url": "https://facebook.com/events/373167453287762",
      },
    ],
    "sourceUrl": "https://kontikibar.ch/",
    "time": 2019-05-09 21:00 (Europe/Zurich),
    "venueName": "Kon-Tiki Bar",
  },
]
`;
