[
    {
        "scope": "https://www.goldenes-fass.ch:443",
        "method": "GET",
        "path": "/saali/",
        "body": "",
        "status": 200,
        "response": "<!DOCTYPE html>\n<html lang=\"de-CH\" class=\"no-js\">\n<head>\n\t<meta charset=\"UTF-8\">\n\t<meta name=\"viewport\" content=\"width=device-width\">\n\t<link rel=\"profile\" href=\"http://gmpg.org/xfn/11\">\n\t<link rel=\"pingback\" href=\"https://www.goldenes-fass.ch/xmlrpc.php\">\n\t<!--[if lt IE 9]>\n\t<script src=\"https://www.goldenes-fass.ch/wp-content/themes/twentyfifteen/js/html5.js\"></script>\n\t<![endif]-->\n\t<script>(function(html){html.className = html.className.replace(/\\bno-js\\b/,'js')})(document.documentElement);</script>\n<title>___Sääli &#8211; zum goldenen fass</title>\n<meta name='robots' content='max-image-preview:large' />\n<link rel='dns-prefetch' href='//fonts.googleapis.com' />\n<link rel='dns-prefetch' href='//s.w.org' />\n<link href='https://fonts.gstatic.com' crossorigin rel='preconnect' />\n<link rel=\"alternate\" type=\"application/rss+xml\" title=\"zum goldenen fass &raquo; Feed\" href=\"https://www.goldenes-fass.ch/feed/\" />\n<link rel=\"alternate\" type=\"application/rss+xml\" title=\"zum goldenen fass &raquo; Kommentar-Feed\" href=\"https://www.goldenes-fass.ch/comments/feed/\" />\n\t\t<script type=\"text/javascript\">\n\t\t\twindow._wpemojiSettings = {\"baseUrl\":\"https:\\/\\/s.w.org\\/images\\/core\\/emoji\\/13.0.1\\/72x72\\/\",\"ext\":\".png\",\"svgUrl\":\"https:\\/\\/s.w.org\\/images\\/core\\/emoji\\/13.0.1\\/svg\\/\",\"svgExt\":\".svg\",\"source\":{\"concatemoji\":\"https:\\/\\/www.goldenes-fass.ch\\/wp-includes\\/js\\/wp-emoji-release.min.js?ver=5.7.8\"}};\n\t\t\t!function(e,a,t){var n,r,o,i=a.createElement(\"canvas\"),p=i.getContext&&i.getContext(\"2d\");function s(e,t){var a=String.fromCharCode;p.clearRect(0,0,i.width,i.height),p.fillText(a.apply(this,e),0,0);e=i.toDataURL();return p.clearRect(0,0,i.width,i.height),p.fillText(a.apply(this,t),0,0),e===i.toDataURL()}function c(e){var t=a.createElement(\"script\");t.src=e,t.defer=t.type=\"text/javascript\",a.getElementsByTagName(\"head\")[0].appendChild(t)}for(o=Array(\"flag\",\"emoji\"),t.supports={everything:!0,everythingExceptFlag:!0},r=0;r<o.length;r++)t.supports[o[r]]=function(e){if(!p||!p.fillText)return!1;switch(p.textBaseline=\"top\",p.font=\"600 32px Arial\",e){case\"flag\":return s([127987,65039,8205,9895,65039],[127987,65039,8203,9895,65039])?!1:!s([55356,56826,55356,56819],[55356,56826,8203,55356,56819])&&!s([55356,57332,56128,56423,56128,56418,56128,56421,56128,56430,56128,56423,56128,56447],[55356,57332,8203,56128,56423,8203,56128,56418,8203,56128,56421,8203,56128,56430,8203,56128,56423,8203,56128,56447]);case\"emoji\":return!s([55357,56424,8205,55356,57212],[55357,56424,8203,55356,57212])}return!1}(o[r]),t.supports.everything=t.supports.everything&&t.supports[o[r]],\"flag\"!==o[r]&&(t.supports.everythingExceptFlag=t.supports.everythingExceptFlag&&t.supports[o[r]]);t.supports.everythingExceptFlag=t.supports.everythingExceptFlag&&!t.supports.flag,t.DOMReady=!1,t.readyCallback=function(){t.DOMReady=!0},t.supports.everything||(n=function(){t.readyCallback()},a.addEventListener?(a.addEventListener(\"DOMContentLoaded\",n,!1),e.addEventListener(\"load\",n,!1)):(e.attachEvent(\"onload\",n),a.attachEvent(\"onreadystatechange\",function(){\"complete\"===a.readyState&&t.readyCallback()})),(n=t.source||{}).concatemoji?c(n.concatemoji):n.wpemoji&&n.twemoji&&(c(n.twemoji),c(n.wpemoji)))}(window,document,window._wpemojiSettings);\n\t\t</script>\n\t\t<style type=\"text/css\">\nimg.wp-smiley,\nimg.emoji {\n\tdisplay: inline !important;\n\tborder: none !important;\n\tbox-shadow: none !important;\n\theight: 1em !important;\n\twidth: 1em !important;\n\tmargin: 0 .07em !important;\n\tvertical-align: -0.1em !important;\n\tbackground: none !important;\n\tpadding: 0 !important;\n}\n</style>\n\t<link rel='stylesheet' id='wp-block-library-css'  href='https://www.goldenes-fass.ch/wp-includes/css/dist/block-library/style.min.css?ver=5.7.8' type='text/css' media='all' />\n<link rel='stylesheet' id='wp-block-library-theme-css'  href='https://www.goldenes-fass.ch/wp-includes/css/dist/block-library/theme.min.css?ver=5.7.8' type='text/css' media='all' />\n<link rel='stylesheet' id='foobox-free-min-css'  href='https://www.goldenes-fass.ch/wp-content/plugins/foobox-image-lightbox/free/css/foobox.free.min.css?ver=2.7.16' type='text/css' media='all' />\n<link rel='stylesheet' id='parent-style-css'  href='https://www.goldenes-fass.ch/wp-content/themes/twentyfifteen/style.css?ver=5.7.8' type='text/css' media='all' />\n<link rel='stylesheet' id='twentyfifteen-fonts-css'  href='https://fonts.googleapis.com/css?family=Noto+Sans%3A400italic%2C700italic%2C400%2C700%7CNoto+Serif%3A400italic%2C700italic%2C400%2C700%7CInconsolata%3A400%2C700&#038;subset=latin%2Clatin-ext' type='text/css' media='all' />\n<link rel='stylesheet' id='genericons-css'  href='https://www.goldenes-fass.ch/wp-content/themes/twentyfifteen/genericons/genericons.css?ver=3.2' type='text/css' media='all' />\n<link rel='stylesheet' id='twentyfifteen-style-css'  href='https://www.goldenes-fass.ch/wp-content/themes/parole-2015/style.css?ver=5.7.8' type='text/css' media='all' />\n<style id='twentyfifteen-style-inline-css' type='text/css'>\n\n\t\t/* Custom Header Background Color */\n\t\tbody:before,\n\t\t.site-header {\n\t\t\tbackground-color: #000000;\n\t\t}\n\n\t\t@media screen and (min-width: 59.6875em) {\n\t\t\t.site-header,\n\t\t\t.secondary {\n\t\t\t\tbackground-color: transparent;\n\t\t\t}\n\n\t\t\t.widget button,\n\t\t\t.widget input[type=\"button\"],\n\t\t\t.widget input[type=\"reset\"],\n\t\t\t.widget input[type=\"submit\"],\n\t\t\t.widget_calendar tbody a,\n\t\t\t.widget_calendar tbody a:hover,\n\t\t\t.widget_calendar tbody a:focus {\n\t\t\t\tcolor: #000000;\n\t\t\t}\n\t\t}\n\t\n\n\t\t/* Custom Sidebar Text Color */\n\t\t.site-title a,\n\t\t.site-description,\n\t\t.secondary-toggle:before {\n\t\t\tcolor: #ffffff;\n\t\t}\n\n\t\t.site-title a:hover,\n\t\t.site-title a:focus {\n\t\t\tcolor: #ffffff; /* Fallback for IE7 and IE8 */\n\t\t\tcolor: rgba( 255, 255, 255, 0.7);\n\t\t}\n\n\t\t.secondary-toggle {\n\t\t\tborder-color: #ffffff; /* Fallback for IE7 and IE8 */\n\t\t\tborder-color: rgba( 255, 255, 255, 0.1);\n\t\t}\n\n\t\t.secondary-toggle:hover,\n\t\t.secondary-toggle:focus {\n\t\t\tborder-color: #ffffff; /* Fallback for IE7 and IE8 */\n\t\t\tborder-color: rgba( 255, 255, 255, 0.3);\n\t\t}\n\n\t\t.site-title a {\n\t\t\toutline-color: #ffffff; /* Fallback for IE7 and IE8 */\n\t\t\toutline-color: rgba( 255, 255, 255, 0.3);\n\t\t}\n\n\t\t@media screen and (min-width: 59.6875em) {\n\t\t\t.secondary a,\n\t\t\t.dropdown-toggle:after,\n\t\t\t.widget-title,\n\t\t\t.widget blockquote cite,\n\t\t\t.widget blockquote small {\n\t\t\t\tcolor: #ffffff;\n\t\t\t}\n\n\t\t\t.widget button,\n\t\t\t.widget input[type=\"button\"],\n\t\t\t.widget input[type=\"reset\"],\n\t\t\t.widget input[type=\"submit\"],\n\t\t\t.widget_calendar tbody a {\n\t\t\t\tbackground-color: #ffffff;\n\t\t\t}\n\n\t\t\t.textwidget a {\n\t\t\t\tborder-color: #ffffff;\n\t\t\t}\n\n\t\t\t.secondary a:hover,\n\t\t\t.secondary a:focus,\n\t\t\t.main-navigation .menu-item-description,\n\t\t\t.widget,\n\t\t\t.widget blockquote,\n\t\t\t.widget .wp-caption-text,\n\t\t\t.widget .gallery-caption {\n\t\t\t\tcolor: rgba( 255, 255, 255, 0.7);\n\t\t\t}\n\n\t\t\t.widget button:hover,\n\t\t\t.widget button:focus,\n\t\t\t.widget input[type=\"button\"]:hover,\n\t\t\t.widget input[type=\"button\"]:focus,\n\t\t\t.widget input[type=\"reset\"]:hover,\n\t\t\t.widget input[type=\"reset\"]:focus,\n\t\t\t.widget input[type=\"submit\"]:hover,\n\t\t\t.widget input[type=\"submit\"]:focus,\n\t\t\t.widget_calendar tbody a:hover,\n\t\t\t.widget_calendar tbody a:focus {\n\t\t\t\tbackground-color: rgba( 255, 255, 255, 0.7);\n\t\t\t}\n\n\t\t\t.widget blockquote {\n\t\t\t\tborder-color: rgba( 255, 255, 255, 0.7);\n\t\t\t}\n\n\t\t\t.main-navigation ul,\n\t\t\t.main-navigation li,\n\t\t\t.secondary-toggle,\n\t\t\t.widget input,\n\t\t\t.widget textarea,\n\t\t\t.widget table,\n\t\t\t.widget th,\n\t\t\t.widget td,\n\t\t\t.widget pre,\n\t\t\t.widget li,\n\t\t\t.widget_categories .children,\n\t\t\t.widget_nav_menu .sub-menu,\n\t\t\t.widget_pages .children,\n\t\t\t.widget abbr[title] {\n\t\t\t\tborder-color: rgba( 255, 255, 255, 0.1);\n\t\t\t}\n\n\t\t\t.dropdown-toggle:hover,\n\t\t\t.dropdown-toggle:focus,\n\t\t\t.widget hr {\n\t\t\t\tbackground-color: rgba( 255, 255, 255, 0.1);\n\t\t\t}\n\n\t\t\t.widget input:focus,\n\t\t\t.widget textarea:focus {\n\t\t\t\tborder-color: rgba( 255, 255, 255, 0.3);\n\t\t\t}\n\n\t\t\t.sidebar a:focus,\n\t\t\t.dropdown-toggle:focus {\n\t\t\t\toutline-color: rgba( 255, 255, 255, 0.3);\n\t\t\t}\n\t\t}\n\t\n</style>\n<link rel='stylesheet' id='twentyfifteen-block-style-css'  href='https://www.goldenes-fass.ch/wp-content/themes/twentyfifteen/css/blocks.css?ver=20181230' type='text/css' media='all' />\n<!--[if lt IE 9]>\n<link rel='stylesheet' id='twentyfifteen-ie-css'  href='https://www.goldenes-fass.ch/wp-content/themes/twentyfifteen/css/ie.css?ver=20141010' type='text/css' media='all' />\n<![endif]-->\n<!--[if lt IE 8]>\n<link rel='stylesheet' id='twentyfifteen-ie7-css'  href='https://www.goldenes-fass.ch/wp-content/themes/twentyfifteen/css/ie7.css?ver=20141010' type='text/css' media='all' />\n<![endif]-->\n<script type='text/javascript' src='https://www.goldenes-fass.ch/wp-includes/js/jquery/jquery.min.js?ver=3.5.1' id='jquery-core-js'></script>\n<script type='text/javascript' src='https://www.goldenes-fass.ch/wp-includes/js/jquery/jquery-migrate.min.js?ver=3.3.2' id='jquery-migrate-js'></script>\n<script type='text/javascript' id='foobox-free-min-js-before'>\n/* Run FooBox FREE (v2.7.16) */\r\nvar FOOBOX = window.FOOBOX = {\r\n\tready: true,\r\n\tdisableOthers: false,\r\n\to: {wordpress: { enabled: true }, excludes:'.fbx-link,.nofoobox,.nolightbox,a[href*=\"pinterest.com/pin/create/button/\"]', affiliate : { enabled: false }, error: \"Could not load the item\"},\r\n\tselectors: [\r\n\t\t\".foogallery-container.foogallery-lightbox-foobox\", \".foogallery-container.foogallery-lightbox-foobox-free\", \".gallery\", \".wp-block-gallery\", \".wp-caption\", \".wp-block-image\", \"a:has(img[class*=wp-image-])\", \".foobox\"\r\n\t],\r\n\tpre: function( $ ){\r\n\t\t// Custom JavaScript (Pre)\r\n\t\t\r\n\t},\r\n\tpost: function( $ ){\r\n\t\t// Custom JavaScript (Post)\r\n\t\t\r\n\t\t// Custom Captions Code\r\n\t\t\r\n\t},\r\n\tcustom: function( $ ){\r\n\t\t// Custom Extra JS\r\n\t\t\r\n\t}\r\n};\n</script>\n<script type='text/javascript' src='https://www.goldenes-fass.ch/wp-content/plugins/foobox-image-lightbox/free/js/foobox.free.min.js?ver=2.7.16' id='foobox-free-min-js'></script>\n<link rel=\"https://api.w.org/\" href=\"https://www.goldenes-fass.ch/wp-json/\" /><link rel=\"alternate\" type=\"application/json\" href=\"https://www.goldenes-fass.ch/wp-json/wp/v2/pages/214\" /><link rel=\"EditURI\" type=\"application/rsd+xml\" title=\"RSD\" href=\"https://www.goldenes-fass.ch/xmlrpc.php?rsd\" />\n<link rel=\"wlwmanifest\" type=\"application/wlwmanifest+xml\" href=\"https://www.goldenes-fass.ch/wp-includes/wlwmanifest.xml\" /> \n<meta name=\"generator\" content=\"WordPress 5.7.8\" />\n<link rel=\"canonical\" href=\"https://www.goldenes-fass.ch/saali/\" />\n<link rel='shortlink' href='https://www.goldenes-fass.ch/?p=214' />\n<link rel=\"alternate\" type=\"application/json+oembed\" href=\"https://www.goldenes-fass.ch/wp-json/oembed/1.0/embed?url=https%3A%2F%2Fwww.goldenes-fass.ch%2Fsaali%2F\" />\n<link rel=\"alternate\" type=\"text/xml+oembed\" href=\"https://www.goldenes-fass.ch/wp-json/oembed/1.0/embed?url=https%3A%2F%2Fwww.goldenes-fass.ch%2Fsaali%2F&#038;format=xml\" />\n        <style>\n            span[class*=\"simple-icon-\"] {\n            \twidth: 1.5rem;\n            \theight: 1.5rem;\n            \tdisplay: inline-block;\n\n            }\n            span[class*=\"simple-icon-\"] svg {\n            \tdisplay: inline-block;\n            \tvertical-align: middle;\n                height: inherit;\n                width: inherit;\n            }\n        </style>\n    \t\t<style type=\"text/css\" id=\"twentyfifteen-header-css\">\n\t\t\t\t.site-header {\n\t\t\tpadding-top: 14px;\n\t\t\tpadding-bottom: 14px;\n\t\t}\n\n\t\t.site-branding {\n\t\t\tmin-height: 42px;\n\t\t}\n\n\t\t@media screen and (min-width: 46.25em) {\n\t\t\t.site-header {\n\t\t\t\tpadding-top: 21px;\n\t\t\t\tpadding-bottom: 21px;\n\t\t\t}\n\t\t\t.site-branding {\n\t\t\t\tmin-height: 56px;\n\t\t\t}\n\t\t}\n\t\t@media screen and (min-width: 55em) {\n\t\t\t.site-header {\n\t\t\t\tpadding-top: 25px;\n\t\t\t\tpadding-bottom: 25px;\n\t\t\t}\n\t\t\t.site-branding {\n\t\t\t\tmin-height: 62px;\n\t\t\t}\n\t\t}\n\t\t@media screen and (min-width: 59.6875em) {\n\t\t\t.site-header {\n\t\t\t\tpadding-top: 0;\n\t\t\t\tpadding-bottom: 0;\n\t\t\t}\n\t\t\t.site-branding {\n\t\t\t\tmin-height: 0;\n\t\t\t}\n\t\t}\n\t\t\t\t\t.site-title,\n\t\t.site-description {\n\t\t\tclip: rect(1px, 1px, 1px, 1px);\n\t\t\tposition: absolute;\n\t\t}\n\t\t</style>\n\t\t<style type=\"text/css\" id=\"custom-background-css\">\nbody.custom-background { background-color: #000000; }\n</style>\n\t\t\t<style type=\"text/css\" id=\"wp-custom-css\">\n\t\t\t@font-face {\n  font-family: 'swift-reg';\n  src: url(\"https://www.goldenes-fass.ch/fonts/swift-reg.eot\");\n  src: url(\"https://www.goldenes-fass.ch/fonts/swift-reg.eot?#iefix\") format(\"embedded-opentype\"), url(\"https://www.goldenes-fass.ch/fonts/swift-reg.woff\") format(\"woff\"), url(\"https://www.goldenes-fass.ch/fonts/swift-reg.ttf\") format(\"truetype\"), url(\"https://www.goldenes-fass.ch/fonts/swift-reg.svg#swift-reg\") format(\"svg\");\n  font-weight: normal;\n  font-style: normal;\n}\n\n.menu a:active\n{\n\tcolor: #ffffff;\n}\n\n.menu a:visited\n{\n\tcolor: #ffffff;\n}\n\nbody\n{\n\tfont-family: \"swift-reg\";\n\tline-height: 1.1;\n}\n\n#masthead\n{\n\tdisplay: none;\n}\n\n#post-446 a\n{\n\tborder-bottom-style: none;\n}\n\n.shortInfo\n{\n\tcolor: #ffffff;\n\tfont-size: 20px;\n\tfont-weight: 400;\n\tline-height: 24px\n}\n\n.shortInfo p\n{\n\tmargin: 0;\n}\n\n.secondary\n{\n\tmargin: 0;\n\tpadding: 0;\n}\n\n.widget\n{\n\tpadding-left: 2%;\n\tpadding-right: 2%;\n\tmargin-bottom: 30px\n}\n\n.threeBars\n{\n\t\n\tletter-spacing: 0.2rem;\n}\n\n.menu-item\n{\n\tfont-size: 20px;\n\t/*letter-spacing: 0.2rem;*/\n\tcolor: #000000;\n\tborder-color: #000000 !important;\n\tpadding: 0 !important;\n\tline-height: 24px;\n}\n\n.site\n{\n\tmargin-left: 5%;\n\tmargin-right: 5%;\n\tmax-width: none;\n}\n\n.sidebar\n{\n\tposition: absolute !important;\n\tmax-width: 500px;\n\twidth: 500px;\n\tmin-width: 500px !important;\n\tmargin-right: 0;\n}\n\n.site-content\n{\n\tmargin-left: 500px;\n\tposition: absolute !important;\n\tfont-size: 20px !important;\n\tmax-width: 525px !important;\n}\n\n.site-footer\n{\n\tdisplay: none;\n}\n\n.site-info\n{\n\tcolor: #000000 !important;\n}\n\n.imprint\n{\n\tcolor: #000000 !important;\n}\n\n.site-footer\n{\n\tbackground-color: #000000;\n\tcolor: #ffffff !important;\n\tmargin-left: 600px;\n}\n\n.entry-header\n{\n\tcolor: #000000;\n\tmax-height: 0px;\n}\n\n.entry-content\n{\n\tpadding-left: 0;\n\tpadding-right: 0;\n\tmargin-top: 391.297px !important;\n}\n\n.page\n{\n\tbackground-color: #000000;\n\tcolor: #ffffff;\n\tmargin-left: 0;\n\tmargin-right: 0;\n\tpadding-top: 0;\n}\n\n.shortInfo a\n{\n\tborder-bottom: none;\n}\n\n\n.shortInfo a:hover\n{\n\tcolor: rgba(255, 255, 255, 1);\n}\n\n.entry-content a\n{\n\tborder-bottom-color: #ffffff;\n}\n\n.iconLink\n{\n\tborder-bottom: none !important;\n}\n\n.entry-content a:visited\n{\n\tcolor: #ffffff;\n\tborder-bottom-style: solid;\n\tborder-bottom-width: 1px;\n\tborder-bottom-color: #ffffff;\n}\n\n.entry-content a:hover\n{\n\tcolor: #ffffff;\n\tborder-bottom-style: solid;\n\tborder-bottom-width: 1px;\n\tborder-bottom-color: #ffffff;\n}\n\n.entry-title\n{\n\tline-height: 48px !important;\n\tfont-size: 10px;\n}\n\n.entry-content a:focus\n{\n\tcolor: rgba(255, 255, 255, 1);\n\tborder-bottom-style: solid;\n\tborder-bottom-width: 1px;\n\tborder-bottom-color: #ffffff;\n}\n\n.site-header\n{\n\tmargin: 0px;\n}\n\n.widget-area\n{\n\tmargin-top: 200px\n}\n\n@media screen and (max-width: 1100px)\n{\n.site-header\n{\n\tdisplay: none;\n\tmargin-top: 0;\n}\n\t\n#logo\n{\n\twidth: 290px;\t\t\n}\n\t\n.foogallery\n\t{\n\t\tpadding-left: 0px !important;\n\t}\n\t\n.sidebar\n{\n\tposition: relative !important;\n\tfloat: left;\n\twidth: 90vw !important;\n\tmin-width: 300px !important;\n}\n\t\n.site-content\n{\n\tmargin-left: 0px;\n\tfloat: left;\n\tposition: relative !important;\n\tfont-size: 18px !important;\n\twidth: 90vw !important;\n\tbackground: transparent !important;\n}\n\t\n.entry-content\n{\n\tmargin-top: 0px !important;\n}\n\n.widget\n{\n\tpadding-left: 0px;\n}\n\t\n.menu-item\n{\n\tfont-size: 18px !important;\n\tline-height: 20px !important;\n}\n\t\n.shortInfo\n{\n\tfont-size: 18px !important;\n\tline-height: 20px !important;\n}\n\t\n.saaliLogo\n{\n\tmargin-top: 0;\n}\n\t\n.site-main\n{\n\tpadding: 0px !important;\n\tmargin: 0px;\n}\n\n.widget-area\n{\n\tmargin-top: 50px;\n}\n\t\n}\n\n@media screen and (max-width: 340px)\n{\n#logo\n{\n\twidth: 260px;\n}\n\t\n.site-content\n{\n\tfont-size: 16px !important;\n\t\n}\n\t\n.menu-item\n{\n\tfont-size: 16px !important;\n\tline-height: 18px !important;\n}\n\t\n.shortInfo\n{\n\tfont-size: 16px !important;\n\tline-height: 18px !important;\n}\n}\t\t</style>\n\t\t</head>\n\n<body class=\"page-template-default page page-id-214 custom-background wp-embed-responsive\">\n<div id=\"page\" class=\"hfeed site\">\n\t<a class=\"skip-link screen-reader-text\" href=\"#content\">Springe zum Inhalt</a>\n\n\t<div id=\"sidebar\" class=\"sidebar\">\n\t\t<header id=\"masthead\" class=\"site-header\" role=\"banner\">\n\t\t\t<div class=\"site-branding\">\n\t\t\t\t\t\t\t\t\t\t<p class=\"site-title\"><a href=\"https://www.goldenes-fass.ch/\" rel=\"home\">zum goldenen fass</a></p>\n\t\t\t\t\t\t\t\t\t\t<button class=\"secondary-toggle\">Menü und Widgets</button>\n\t\t\t</div><!-- .site-branding -->\n\t\t</header><!-- .site-header -->\n\n\t\t\t<div id=\"secondary\" class=\"secondary\">\n\n\t\t\n\t\t\n\t\t\t\t\t<div id=\"widget-area\" class=\"widget-area\" role=\"complementary\">\n\t\t\t\t<aside id=\"custom_html-3\" class=\"widget_text widget widget_custom_html\"><div class=\"textwidget custom-html-widget\"><div class=\"logo\">\r\n<a href=\"https://wp.goldenes-fass.ch\">\r\n<img src=\"https://wp.goldenes-fass.ch/wp-content/uploads/2019/04/titel_logo.png\" alt=\"Logo zum goldenen fass\" width=\"340\" id=\"logo\"> \r\n</a>\r\n</div>\r\n\r\n<div class=\"shortInfo\" id=\"shortInfo\">\r\n<p id=\"venueType\">Restaurant</p>\r\n<p id=\"openingHours\">Dienstag – Samstag ab 18.30</p>\r\n<br>\r\n<a href=\"https://www.google.ch/maps/place/Hammerstrasse+108,+4057+Basel/@47.5656718,7.5956753,17z/data=!3m1!4b1!4m2!3m1!1s0x4791b9bb6c0cb0b9:0x9b27485f574c7721?hl=en\" target=\"_blank\" rel=\"noopener\">\r\n<p id=\"address\">Hammerstrasse 108<span class=\"threeBars\">___</span>4057 Basel</p></a>\r\n<p id=\"contact\">061 693 34 00<span class=\"threeBars\">___</span><a href=\"mailto:info@goldenes-fass.ch\">info@goldenes-fass.ch</a></p>\r\n</div>\r\n\r\n<script>\r\nvar logoElem = document.getElementById(\"logo\");\r\nvar widgetElem = document.getElementById(\"widget-area\");\r\nvar x = document.URL;\r\nsubstring = \"saali\";\r\nif (x.indexOf(substring) !== -1)\r\n{\r\n\tlogoElem.src = \"https://wp.goldenes-fass.ch/wp-content/uploads/2019/04/saali_logo.png\";\r\n\tlogoElem.alt = \"Logo Sääli\";\r\n\tlogoElem.width = \"170\";\r\ndocument.getElementById(\"masthead\").setAttribute( 'class', 'site-header saaliLogo' );\r\ndocument.getElementById(\"venueType\").innerHTML = \"Sääli\";\r\ndocument.getElementById(\"openingHours\").innerHTML = \"Mittwoch – Samstag ab 20.00\";\r\nwidgetElem.style.marginTop = \"139.297px\";\r\n}\r\n</script></div></aside><aside id=\"nav_menu-3\" class=\"widget widget_nav_menu\"><div class=\"menu-hauptmenue-container\"><ul id=\"menu-hauptmenue\" class=\"menu\"><li id=\"menu-item-450\" class=\"menu-item menu-item-type-post_type menu-item-object-page menu-item-450\"><a href=\"https://www.goldenes-fass.ch/reservationen/\"><span class=\"threeBars\">___</span>Reservationen</a></li>\n<li id=\"menu-item-84\" class=\"menu-item menu-item-type-post_type menu-item-object-page menu-item-84\"><a href=\"https://www.goldenes-fass.ch/menu/\"><span class=\"threeBars\">___</span>Menu</a></li>\n<li id=\"menu-item-454\" class=\"menu-item menu-item-type-post_type menu-item-object-page menu-item-454\"><a href=\"https://www.goldenes-fass.ch/ueber-uns-team/\"><span class=\"threeBars\">___</span>Über uns</a></li>\n<li id=\"menu-item-261\" class=\"menu-item menu-item-type-post_type menu-item-object-page menu-item-261\"><a href=\"https://www.goldenes-fass.ch/fass-bar/\"><span class=\"threeBars\">___</span>Fass Bar</a></li>\n<li id=\"menu-item-216\" class=\"menu-item menu-item-type-post_type menu-item-object-page current-menu-item page_item page-item-214 current_page_item menu-item-216\"><a href=\"https://www.goldenes-fass.ch/saali/\" aria-current=\"page\"><span class=\"threeBars\">___</span>Sääli</a></li>\n<li id=\"menu-item-387\" class=\"menu-item menu-item-type-post_type menu-item-object-page menu-item-387\"><a href=\"https://www.goldenes-fass.ch/flora-buvette/\"><span class=\"threeBars\">___</span>Flora Buvette</a></li>\n<li id=\"menu-item-392\" class=\"menu-item menu-item-type-post_type menu-item-object-page menu-item-392\"><a href=\"https://www.goldenes-fass.ch/fotos/\"><span class=\"threeBars\">___</span>Fotos</a></li>\n</ul></div></aside>\t\t\t</div><!-- .widget-area -->\n\t\t\n\t</div><!-- .secondary -->\n\n\t</div><!-- .sidebar -->\n\n\t<div id=\"content\" class=\"site-content\">\n\n\t<div id=\"primary\" class=\"content-area\">\n\t\t<main id=\"main\" class=\"site-main\" role=\"main\">\n\n\t\t\n<article id=\"post-214\" class=\"post-214 page type-page status-publish hentry\">\n\t\n\t<header class=\"entry-header\">\n\t\t<h1 class=\"entry-title\"><span class=\"threeBars\">___</span>Sääli</h1>\t</header><!-- .entry-header -->\n\n\t<div class=\"entry-content\">\n\t\t<h1>Sääli Oktober 22</h1>\n<p><strong>Freitag__04_11__22h____A Slippery Bar Of Soap<br />\n</strong>Stefan Steffen Stefanson<br />\n80&#8217;s Synthpop &amp; Indie</p>\n<p><a href=\"https://www.facebook.com/TheRRHC\"><strong>Samstag__05_11__22h____Raunchy Rawhide Chicken</strong></a><br />\nGuest DJ Buddy<br />\nBlues&#8217;n Boogie, Soul, Rock&#8217;n Roll, Ska, Exotica</p>\n<p><strong>Freitag__11_11__22h____SBB</strong><br />\nSchallplattenfreunde Beider Basel<br />\nPop, Trash, Electronica</p>\n<p><strong>Sa</strong><strong>mstag__12_11__22h____Twangy Night<br />\n</strong>DJ B-Slap<br />\nSoul, Pop, Hip Hop, Rock</p>\n<p><a href=\"https://www.facebook.com/rumbaboxx\"><strong>Freitag__18_11__22h____Rumba BoxX</strong></a><br />\nCALYPSO TIME!<br />\nDJ&#8217;s Jallimann &amp; Rootspro<br />\nMento, Calypso, Ska, Reggae</p>\n<p><strong>Samstag__22_10__22h____<br />\n</strong></p>\n<p><strong>Unsere Hauslabels</strong></p>\n<p><a href=\"https://www.facebook.com/rumbaboxx/\">Rumba BoxX</a></p>\n<p><a href=\"https://www.facebook.com/TheRRHC/\">Raunchy Rawhide Chicken</a></p>\n<p><a href=\"http://www.gofundme.com/f/psychojones-antivirus-survival\">Psycho Jonas gofundeme Linkan Steffen Stefanson</a></p>\n<p><a href=\"http://www.mixcloud.com/psychojones/psycho-tv-export-at-fassbarbasel-10-18/\">Psycho Jonas DJ Set</a></p>\n<p><a href=\"http://www.mixcloud.com/psychojones/psycho-tv-export-at-fassbarbasel-10-18-pt-i-bingoshow/\">Psycho Jonas Bingo</a></p>\n<p><a href=\"https://www.facebook.com/peachesprunes/\">Peaches and Prunes</a></p>\n<p><a href=\"https://www.facebook.com/uhurusound/?__tn__=kC-R&amp;eid=ARAl9YQJ4pl0nDf5vL72KbMPLQzhWfXSH9nkjcZF9mkA8Po-OkUlOdXxmhB6EP8b3DyjqWzzzjUBBQt0&amp;hc_ref=ARQAf_l-s3Oc1GUWBs5usGaB0YXj1P9WGJ5xHa_Qhy7pUzM9yCRXxcka_rIF2_33_kA&amp;fref=nf&amp;__xts__[0]=68.ARCovp-aEAmDxM8lTz3mO2WaCt_cY3hVvnUrMAIw80rphTdrGmsM0kHYTD7L-zikhG0sobkUMceI63v0QIMFIkShbOntFBFiimokdiYvvgXtRr-Hd4fX8rIvi1RtVEyK_m45Wbk_iyEf-P5jytZkIAsZqV_cw09Rn3xlpAFG7AQQaWqmf8ZOqAV0A9oCWX4AhrGhbwW_j0i7oDQzJz3aiLCvYXAjVoCS_5wPrboK9yIAukDUO8HIVKUlzsF4N3CSJ4zZSRfriUrSdvIrat7UJu8yy0b6voLNvYAse4eTMgeAzjKFaDa280U3r3hyF-6bHQCR1EILPW-cpa1vbN_UpZ8lrbVndYaYQRtzHVGKRQHTg-CruiGX-4PKmMwSnmg0Ul1j8qaRPKCzmS06Ebt5tCbMFBksw1Ri1L6jtRfkKZWoloKxeXlfZImEXU0L_GY1mnC_64JvUPv-mplbk7PzScAdN9nlL5mh8joCCmo3EFHPg4ugapFAnw\">Uhuru Sound Resistance</a></p>\n<p><a href=\"https://www.facebook.com/events/sääli/sbb-schallplattenfreunde-beider-basel/2487856631485281/\">SBB Schalplattenfreunde Beider Basels</a></p>\n\t\t\t</div><!-- .entry-content -->\n\n\t\n</article><!-- #post-## -->\n\n\t\t</main><!-- .site-main -->\n\t</div><!-- .content-area -->\n\n\n\t</div><!-- .site-content -->\n\n\t<footer id=\"colophon\" class=\"site-footer\" role=\"contentinfo\">\n\t\t<div class=\"site-info\">\n\t\t\t\t\t\t<p></p>\t\t\t<p>&copy; 2022 zum goldenen fass. Alle Rechte vorbehalten.</p>\n\t\t\t<p>\n\t\t\t<a href=\"https://wpneon.com/parole-2015-wordpress-child-theme/\" class=\"imprint\">\n\t\t\t\tParole 2015 Theme.\t\t\t</a><span role=\"separator\" aria-hidden=\"true\"></span>\n\t\t\t<a href=\"https://de.wordpress.org/\" class=\"imprint\">\n\t\t\t\tPräsentiert von WordPress.\t\t\t</a></p>\n\t\t</div><!-- .site-info -->\n\t</footer><!-- .site-footer -->\n\n</div><!-- .site -->\n\n<script>\r\nvar locBut = document.getElementById(\"localina-button\");\r\nif (locBut != null)\r\n{\r\nlocBut.href = \"javascript:void(0);\";\r\nlocBut.addEventListener(\"click\", function(){  Localina.startBooking('0041616933400', '810220201808176f9bd5d4bacdbb67aec80ff49c7e1550', jQuery(this)) } );\r\n}\r\n</script>\n<script type='text/javascript' src='https://www.goldenes-fass.ch/wp-content/themes/twentyfifteen/js/skip-link-focus-fix.js?ver=20141010' id='twentyfifteen-skip-link-focus-fix-js'></script>\n<script type='text/javascript' id='twentyfifteen-script-js-extra'>\n/* <![CDATA[ */\nvar screenReaderText = {\"expand\":\"<span class=\\\"screen-reader-text\\\">Untermen\\u00fc anzeigen<\\/span>\",\"collapse\":\"<span class=\\\"screen-reader-text\\\">Untermen\\u00fc verbergen<\\/span>\"};\n/* ]]> */\n</script>\n<script type='text/javascript' src='https://www.goldenes-fass.ch/wp-content/themes/twentyfifteen/js/functions.js?ver=20150330' id='twentyfifteen-script-js'></script>\n<script type='text/javascript' src='https://www.goldenes-fass.ch/wp-includes/js/wp-embed.min.js?ver=5.7.8' id='wp-embed-js'></script>\n\n</body>\n</html>\n",
        "rawHeaders": [
            "date",
            "thu, 17 nov 2022 17:30:31 gmt",
            "server",
            "apache",
            "link",
            "<https://www.goldenes-fass.ch/?p=214>; rel=shortlink",
            "upgrade",
            "h2,h2c",
            "connection",
            "upgrade, keep-alive",
            "accept-ranges",
            "none",
            "vary",
            "accept-encoding",
            "keep-alive",
            "timeout=5, max=100",
            "transfer-encoding",
            "chunked",
            "content-type",
            "text/html; charset=utf-8"
        ]
    }
]